{
  ":woman_woman_girl_girl:": "\\u{1F469}\\u{200D}\\u{1F469}\\u{200D}\\u{1F467}\\u{200D}\\u{1F467}",
  ":woman_woman_girl_boy:": "\\u{1F469}\\u{200D}\\u{1F469}\\u{200D}\\u{1F467}\\u{200D}\\u{1F466}",
  ":woman_woman_boy_boy:": "\\u{1F469}\\u{200D}\\u{1F469}\\u{200D}\\u{1F466}\\u{200D}\\u{1F466}",
  ":man_woman_girl_girl:": "\\u{1F468}\\u{200D}\\u{1F469}\\u{200D}\\u{1F467}\\u{200D}\\u{1F467}",
  ":man_woman_girl_boy:": "\\u{1F468}\\u{200D}\\u{1F469}\\u{200D}\\u{1F467}\\u{200D}\\u{1F466}",
  ":man_woman_boy_boy:": "\\u{1F468}\\u{200D}\\u{1F469}\\u{200D}\\u{1F466}\\u{200D}\\u{1F466}",
  ":man_man_girl_girl:": "\\u{1F468}\\u{200D}\\u{1F468}\\u{200D}\\u{1F467}\\u{200D}\\u{1F467}",
  ":man_man_girl_boy:": "\\u{1F468}\\u{200D}\\u{1F468}\\u{200D}\\u{1F467}\\u{200D}\\u{1F466}",
  ":man_man_boy_boy:": "\\u{1F468}\\u{200D}\\u{1F468}\\u{200D}\\u{1F466}\\u{200D}\\u{1F466}",
  ":woman_woman_girl:": "\\u{1F469}\\u{200D}\\u{1F469}\\u{200D}\\u{1F467}",
  ":woman_woman_boy:": "\\u{1F469}\\u{200D}\\u{1F469}\\u{200D}\\u{1F466}",
  ":woman_girl_girl:": "\\u{1F469}\\u{200D}\\u{1F467}\\u{200D}\\u{1F467}",
  ":woman_girl_boy:": "\\u{1F469}\\u{200D}\\u{1F467}\\u{200D}\\u{1F466}",
  ":woman_boy_boy:": "\\u{1F469}\\u{200D}\\u{1F466}\\u{200D}\\u{1F466}",
  ":man_woman_girl:": "\\u{1F468}\\u{200D}\\u{1F469}\\u{200D}\\u{1F467}",
  ":man_man_girl:": "\\u{1F468}\\u{200D}\\u{1F468}\\u{200D}\\u{1F467}",
  ":man_man_boy:": "\\u{1F468}\\u{200D}\\u{1F468}\\u{200D}\\u{1F466}",
  ":man_girl_girl:": "\\u{1F468}\\u{200D}\\u{1F467}\\u{200D}\\u{1F467}",
  ":man_girl_boy:": "\\u{1F468}\\u{200D}\\u{1F467}\\u{200D}\\u{1F466}",
  ":man_boy_boy:": "\\u{1F468}\\u{200D}\\u{1F466}\\u{200D}\\u{1F466}",
  ":woman_girl:": "\\u{1F469}\\u{200D}\\u{1F467}",
  ":woman_boy:": "\\u{1F469}\\u{200D}\\u{1F466}",
  ":man_girl:": "\\u{1F468}\\u{200D}\\u{1F467}",
  ":man_boy:": "\\u{1F468}\\u{200D}\\u{1F466}",
  ":joy:": "\\u{1f602}",
  ":heart:": "\\u{2764}",
  ":heart_suit:": "\\u{2665}\\u{FE0F}",
  ":heart_eyes:": "\\u{1f60d}",
  ":sob:": "\\u{1f62d}",
  ":blush:": "\\u{1f60a}",
  ":unamused:": "\\u{1f612}",
  ":kissing_heart:": "\\u{1f618}",
  ":two_hearts:": "\\u{1f495}",
  ":smiling:": "\\u{263A}\\u{FE0F}",
  ":weary:": "\\u{1f629}",
  ":ok_hand:": "\\u{1f44c}",
  ":pensive:": "\\u{1f614}",
  ":smirk:": "\\u{1f60f}",
  ":grin:": "\\u{1f601}",
  ":recycle:": "\\u{267b}",
  ":wink:": "\\u{1f609}",
  ":thumbsup:": "\\u{1f44d}",
  ":pray:": "\\u{1f64f}",
  ":relieved:": "\\u{1f60c}",
  ":notes:": "\\u{1f3b6}",
  ":flushed:": "\\u{1f633}",
  ":raised_hands:": "\\u{1f64c}",
  ":see_no_evil:": "\\u{1f648}",
  ":cry:": "\\u{1f622}",
  ":sunglasses:": "\\u{1F576}\\u{FE0F}",
  ":v:": "\\u{270c}",
  ":eyes:": "\\u{1f440}",
  ":sweat_smile:": "\\u{1f605}",
  ":sparkles:": "\\u{2728}",
  ":sleeping:": "\\u{1f634}",
  ":smile:": "\\u{1f604}",
  ":purple_heart:": "\\u{1f49c}",
  ":broken_heart:": "\\u{1f494}",
  ":hundred_points:": "\\u{1F4AF}",
  ":expressionless:": "\\u{1f611}",
  ":sparkling_heart:": "\\u{1f496}",
  ":blue_heart:": "\\u{1f499}",
  ":confused:": "\\u{1f615}",
  ":man_tipping_hand:": "\\u{1F481}\\u{200D}\\u{2642}\\u{FE0F}",
  ":information_desk_person:": "\\u{1f481}",
  ":stuck_out_tongue_winking_eye:": "\\u{1f61c}",
  ":disappointed:": "\\u{1f61e}",
  ":yum:": "\\u{1f60b}",
  ":neutral_face:": "\\u{1f610}",
  ":sleepy:": "\\u{1f62a}",
  ":clap:": "\\u{1f44f}",
  ":cupid:": "\\u{1f498}",
  ":heartpulse:": "\\u{1f497}",
  ":revolving_hearts:": "\\u{1f49e}",
  ":arrow_left:": "\\u{2b05}",
  ":speak_no_evil:": "\\u{1f64a}",
  ":raised_hand:": "\\u{270B}",
  ":kiss:": "\\u{1f48b}",
  ":point_right:": "\\u{1f449}",
  ":cherry_blossom:": "\\u{1f338}",
  ":scream:": "\\u{1f631}",
  ":fire:": "\\u{1f525}",
  ":rage:": "\\u{1f621}",
  ":smiley:": "\\u{1f603}",
  ":tada:": "\\u{1f389}",
  ":oncoming_fist:": "\\u{1F44A}",
  ":tired_face:": "\\u{1f62b}",
  ":camera:": "\\u{1f4f7}",
  ":rose:": "\\u{1f339}",
  ":stuck_out_tongue_closed_eyes:": "\\u{1f61d}",
  ":muscle:": "\\u{1f4aa}",
  ":skull:": "\\u{1f480}",
  ":sunny:": "\\u{2600}",
  ":yellow_heart:": "\\u{1f49b}",
  ":triumph:": "\\u{1f624}",
  ":new_moon_with_face:": "\\u{1f31a}",
  ":laughing:": "\\u{1f606}",
  ":sweat:": "\\u{1f613}",
  ":point_left:": "\\u{1f448}",
  ":heavy_check_mark:": "\\u{2714}",
  ":heart_eyes_cat:": "\\u{1f63b}",
  ":grinning:": "\\u{1f600}",
  ":mask:": "\\u{1f637}",
  ":green_heart:": "\\u{1f49a}",
  ":wave:": "\\u{1f44b}",
  ":persevere:": "\\u{1f623}",
  ":heartbeat:": "\\u{1f493}",
  ":arrow_forward:": "\\u{25b6}",
  ":arrow_backward:": "\\u{25c0}",
  ":arrow_right_hook:": "\\u{21aa}",
  ":leftwards_arrow_with_hook:": "\\u{21a9}",
  ":crown:": "\\u{1f451}",
  ":kissing_closed_eyes:": "\\u{1f61a}",
  ":stuck_out_tongue:": "\\u{1f61b}",
  ":disappointed_relieved:": "\\u{1f625}",
  ":innocent:": "\\u{1f607}",
  ":headphones:": "\\u{1f3a7}",
  ":white_check_mark:": "\\u{2705}",
  ":confounded:": "\\u{1f616}",
  ":arrow_right:": "\\u{27a1}",
  ":angry:": "\\u{1f620}",
  ":grimacing:": "\\u{1f62c}",
  ":star2:": "\\u{1f31f}",
  ":gun:": "\\u{1f52b}",
  ":man_raising_hand:": "\\u{1F64B}\\u{200D}\\u{2642}\\u{FE0F}",
  ":raising_hand:": "\\u{1f64b}",
  ":thumbsdown:": "\\u{1f44e}",
  ":dancer:": "\\u{1f483}",
  ":musical_note:": "\\u{1f3b5}",
  ":no_mouth:": "\\u{1f636}",
  ":dizzy:": "\\u{1f4ab}",
  ":fist:": "\\u{270a}",
  ":point_down:": "\\u{1f447}",
  ":red_circle:": "\\u{1f534}",
  ":man_gesturing_NO:": "\\u{1F645}\\u{200D}\\u{2642}\\u{FE0F}",
  ":no_good:": "\\u{1f645}",
  ":boom:": "\\u{1f4a5}",
  ":copyright:": "\\u{00a9}",
  ":thought_balloon:": "\\u{1f4ad}",
  ":tongue:": "\\u{1f445}",
  ":poop:": "\\u{1f4a9}",
  ":cold_sweat:": "\\u{1f630}",
  ":gem:": "\\u{1f48e}",
  ":man_gesturing_OK:": "\\u{1F646}\\u{200D}\\u{2642}\\u{FE0F}",
  ":ok_woman:": "\\u{1f646}",
  ":pizza:": "\\u{1f355}",
  ":joy_cat:": "\\u{1f639}",
  ":sun_with_face:": "\\u{1f31e}",
  ":leaves:": "\\u{1f343}",
  ":sweat_drops:": "\\u{1f4a6}",
  ":penguin:": "\\u{1f427}",
  ":zzz:": "\\u{1f4a4}",
  ":woman_walking:": "\\u{1F6B6}\\u{200D}\\u{2640}\\u{FE0F}",
  ":walking:": "\\u{1f6b6}",
  ":airplane:": "\\u{2708}",
  ":balloon:": "\\u{1f388}",
  ":star:": "\\u{2b50}",
  ":ribbon:": "\\u{1f380}",
  ":ballot_box_with_check:": "\\u{2611}",
  ":worried:": "\\u{1f61f}",
  ":underage:": "\\u{1f51e}",
  ":fearful:": "\\u{1f628}",
  ":four_leaf_clover:": "\\u{1f340}",
  ":hibiscus:": "\\u{1f33a}",
  ":microphone:": "\\u{1f3a4}",
  ":open_hands:": "\\u{1f450}",
  ":ghost:": "\\u{1f47b}",
  ":palm_tree:": "\\u{1f334}",
  ":bangbang:": "\\u{203c}",
  ":nail_care:": "\\u{1f485}",
  ":x:": "\\u{274c}",
  ":alien:": "\\u{1f47d}",
  ":woman_bowing:": "\\u{1F647}\\u{200D}\\u{2640}\\u{FE0F}",
  ":bow:": "\\u{1f647}",
  ":cloud:": "\\u{2601}\\u{FE0F}",
  ":soccer:": "\\u{26bd}",
  ":angel:": "\\u{1f47c}",
  ":men_with_bunny_ears:": "\\u{1F46F}\\u{200D}\\u{2642}\\u{FE0F}",
  ":dancers:": "\\u{1f46f}",
  ":exclamation:": "\\u{2757}",
  ":snowflake:": "\\u{2744}",
  ":point_up:": "\\u{261d}",
  ":kissing_smiling_eyes:": "\\u{1f619}",
  ":rainbow:": "\\u{1f308}",
  ":crescent_moon:": "\\u{1f319}",
  ":heart_decoration:": "\\u{1f49f}",
  ":gift_heart:": "\\u{1f49d}",
  ":gift:": "\\u{1f381}",
  ":beers:": "\\u{1f37b}",
  ":anguished:": "\\u{1f627}",
  ":earth_africa:": "\\u{1f30d}",
  ":movie_camera:": "\\u{1f3a5}",
  ":anchor:": "\\u{2693}",
  ":zap:": "\\u{26a1}",
  ":club_suit:": "\\u{2663}\\u{FE0F}",
  ":heavy_multiplication_x:": "\\u{2716}",
  ":woman_running:": "\\u{1F3C3}\\u{200D}\\u{2640}\\u{FE0F}",
  ":runner:": "\\u{1f3c3}",
  ":sunflower:": "\\u{1f33b}",
  ":earth_americas:": "\\u{1f30e}",
  ":bouquet:": "\\u{1f490}",
  ":dog:": "\\u{1f436}",
  ":moneybag:": "\\u{1f4b0}",
  ":herb:": "\\u{1f33f}",
  ":couple:": "\\u{1f46b}",
  ":fallen_leaf:": "\\u{1f342}",
  ":tulip:": "\\u{1f337}",
  ":birthday:": "\\u{1f382}",
  ":cat:": "\\u{1f431}",
  ":coffee:": "\\u{2615}",
  ":dizzy_face:": "\\u{1f635}",
  ":point_up_2:": "\\u{1f446}",
  ":open_mouth:": "\\u{1f62e}",
  ":hushed:": "\\u{1f62f}",
  ":basketball:": "\\u{1f3c0}",
  ":christmas_tree:": "\\u{1f384}",
  ":ring:": "\\u{1f48d}",
  ":full_moon_with_face:": "\\u{1f31d}",
  ":astonished:": "\\u{1f632}",
  ":two_women_holding_hands:": "\\u{1f46d}",
  ":money_with_wings:": "\\u{1f4b8}",
  ":crying_cat_face:": "\\u{1f63f}",
  ":hear_no_evil:": "\\u{1f649}",
  ":dash:": "\\u{1f4a8}",
  ":cactus:": "\\u{1f335}",
  ":hotsprings:": "\\u{2668}",
  ":telephone:": "\\u{260E}",
  ":maple_leaf:": "\\u{1f341}",
  ":princess:": "\\u{1f478}",
  ":man_getting_massage:": "\\u{1F486}\\u{200D}\\u{2642}\\u{FE0F}",
  ":massage:": "\\u{1f486}",
  ":love_letter:": "\\u{1f48c}",
  ":trophy:": "\\u{1f3c6}",
  ":man_frowning:": "\\u{1F64D}\\u{200D}\\u{2642}\\u{FE0F}",
  ":person_frowning:": "\\u{1f64d}",
  ":us:": "\\u{1f1fa}",
  ":confetti_ball:": "\\u{1f38a}",
  ":blossom:": "\\u{1f33c}",
  ":kitchen_knife:": "\\u{1F52A}",
  ":lips:": "\\u{1f444}",
  ":fries:": "\\u{1f35f}",
  ":doughnut:": "\\u{1f369}",
  ":frowning:": "\\u{1f626}",
  ":ocean:": "\\u{1f30a}",
  ":bomb:": "\\u{1f4a3}",
  ":ok:": "\\u{1f197}",
  ":cyclone:": "\\u{1f300}",
  ":rocket:": "\\u{1f680}",
  ":umbrella:": "\\u{2602}",
  ":couplekiss:": "\\u{1f48f}",
  ":couple_woman_kiss:": "\\u{1F469}\\u{200D}\\u{2764}\\u{FE0F}\\u{200D}\\u{1F48B}\\u{200D}\\u{1F469}",
  ":couple_man_kiss:": "\\u{1F468}\\u{200D}\\u{2764}\\u{FE0F}\\u{200D}\\u{1F48B}\\u{200D}\\u{1F468}",
  ":couple_with_heart:": "\\u{1f491}",
  ":woman_woman:": "\\u{1F469}\\u{200D}\\u{2764}\\u{200D}\\u{1F469}",
  ":man_man_love:": "\\u{1F468}\\u{200D}\\u{2764}\\u{FE0F}\\u{200D}\\u{1F468}",
  ":lollipop:": "\\u{1f36d}",
  ":clapper:": "\\u{1f3ac}",
  ":pig:": "\\u{1f437}",
  ":smiling_imp:": "\\u{1f608}",
  ":imp:": "\\u{1f47f}",
  ":bee:": "\\u{1f41d}",
  ":kissing_cat:": "\\u{1f63d}",
  ":anger:": "\\u{1f4a2}",
  ":musical_score:": "\\u{1f3bc}",
  ":santa:": "\\u{1f385}",
  ":earth_asia:": "\\u{1f30f}",
  ":football:": "\\u{1f3c8}",
  ":guitar:": "\\u{1f3b8}",
  ":diamond_suit:": "\\u{2666}\\u{FE0F}",
  ":panda_face:": "\\u{1f43c}",
  ":speech_balloon:": "\\u{1f4ac}",
  ":strawberry:": "\\u{1f353}",
  ":smirk_cat:": "\\u{1f63c}",
  ":banana:": "\\u{1f34c}",
  ":watermelon:": "\\u{1f349}",
  ":snowman:": "\\u{2603}",
  ":smile_cat:": "\\u{1f638}",
  ":spade_suit:": "\\u{2660}\\u{FE0F}",
  ":top:": "\\u{1f51d}",
  ":eggplant:": "\\u{1f346}",
  ":crystal_ball:": "\\u{1f52e}",
  ":fork_and_knife:": "\\u{1f374}",
  ":calling:": "\\u{1f4f2}",
  ":iphone:": "\\u{1f4f1}",
  ":partly_sunny:": "\\u{26c5}",
  ":warning:": "\\u{26A0}",
  ":scream_cat:": "\\u{1f640}",
  ":small_orange_diamond:": "\\u{1f538}",
  ":baby:": "\\u{1f476}",
  ":feet:": "\\u{1f43e}",
  ":footprints:": "\\u{1f463}",
  ":beer:": "\\u{1f37a}",
  ":wine_glass:": "\\u{1f377}",
  ":o:": "\\u{2b55}",
  ":video_camera:": "\\u{1f4f9}",
  ":rabbit:": "\\u{1f430}",
  ":tropical_drink:": "\\u{1f379}",
  ":smoking:": "\\u{1f6ac}",
  ":space_invader:": "\\u{1f47e}",
  ":peach:": "\\u{1f351}",
  ":snake:": "\\u{1f40d}",
  ":turtle:": "\\u{1f422}",
  ":cherries:": "\\u{1f352}",
  ":kissing:": "\\u{1f617}",
  ":frog:": "\\u{1f438}",
  ":milky_way:": "\\u{1f30c}",
  ":rotating_light:": "\\u{1f6a8}",
  ":hatching_chick:": "\\u{1f423}",
  ":closed_book:": "\\u{1f4d5}",
  ":candy:": "\\u{1f36c}",
  ":hamburger:": "\\u{1f354}",
  ":bear:": "\\u{1f43b}",
  ":tiger:": "\\u{1f42f}",
  ":automobile:": "\\u{1F697}",
  ":fast_forward:": "\\u{2.3E+10}",
  ":icecream:": "\\u{1f366}",
  ":pineapple:": "\\u{1f34d}",
  ":ear_of_rice:": "\\u{1f33e}",
  ":syringe:": "\\u{1f489}",
  ":put_litter_in_its_place:": "\\u{1f6ae}",
  ":chocolate_bar:": "\\u{1f36b}",
  ":black_small_square:": "\\u{25AA}",
  ":tv:": "\\u{1f4fa}",
  ":pill:": "\\u{1f48a}",
  ":octopus:": "\\u{1f419}",
  ":jack_o_lantern:": "\\u{1f383}",
  ":grapes:": "\\u{1f347}",
  ":smiley_cat:": "\\u{1f63a}",
  ":cd:": "\\u{1f4bf}",
  ":cocktail:": "\\u{1f378}",
  ":cake:": "\\u{1f370}",
  ":video_game:": "\\u{1f3ae}",
  ":trade_mark:": "\\u{2122}\\u{FE0F}",
  ":arrow_down:": "\\u{2b07}",
  ":no_entry_sign:": "\\u{1f6ab}",
  ":lipstick:": "\\u{1f484}",
  ":whale:": "\\u{1f433}",
  ":memo:": "\\u{1F4DD}",
  ":registered:": "\\u{00ae}",
  ":cookie:": "\\u{1f36a}",
  ":dolphin:": "\\u{1f42c}",
  ":loud_sound:": "\\u{1f50a}",
  ":man:": "\\u{1f468}",
  ":hatched_chick:": "\\u{1f425}",
  ":monkey:": "\\u{1f412}",
  ":books:": "\\u{1f4da}",
  ":japanese_ogre:": "\\u{1f479}",
  ":woman_guard:": "\\u{1F482}\\u{200D}\\u{2640}\\u{FE0F}",
  ":guardsman:": "\\u{1f482}",
  ":loudspeaker:": "\\u{1f4e2}",
  ":scissors:": "\\u{2702}",
  ":girl:": "\\u{1f467}",
  ":mortar_board:": "\\u{1f393}",
  ":fr:": "\\u{1f1eb}",
  ":baseball:": "\\u{26BE}",
  ":vertical_traffic_light:": "\\u{1f6a6}",
  ":woman:": "\\u{1f469}",
  ":fireworks:": "\\u{1f386}",
  ":stars:": "\\u{1f320}",
  ":sos:": "\\u{1f198}",
  ":mushroom:": "\\u{1f344}",
  ":pouting_cat:": "\\u{1f63e}",
  ":left_luggage:": "\\u{1f6c5}",
  ":high_heel:": "\\u{1f460}",
  ":dart:": "\\u{1f3af}",
  ":woman_swimming:": "\\u{1F3CA}\\u{200D}\\u{2640}\\u{FE0F}",
  ":swimmer:": "\\u{1f3ca}",
  ":key:": "\\u{1f511}",
  ":bikini:": "\\u{1f459}",
  ":family:": "\\u{1f46a}",
  ":pencil2:": "\\u{270f}",
  ":elephant:": "\\u{1f418}",
  ":droplet:": "\\u{1f4a7}",
  ":seedling:": "\\u{1f331}",
  ":apple:": "\\u{1f34e}",
  ":cool:": "\\u{1f192}",
  ":telephone_receiver:": "\\u{1f4de}",
  ":dollar:": "\\u{1f4b5}",
  ":house_with_garden:": "\\u{1f3e1}",
  ":book:": "\\u{1f4d6}",
  ":man_getting_haircut:": "\\u{1F487}\\u{200D}\\u{2642}\\u{FE0F}",
  ":haircut:": "\\u{1f487}",
  ":computer:": "\\u{1f4bb}",
  ":bulb:": "\\u{1f4a1}",
  ":question:": "\\u{2753}",
  ":back:": "\\u{1f519}",
  ":boy:": "\\u{1f466}",
  ":closed_lock_with_key:": "\\u{1f510}",
  ":man_pouting:": "\\u{1F64E}\\u{200D}\\u{2642}\\u{FE0F}",
  ":person_with_pouting_face:": "\\u{1f64e}",
  ":tangerine:": "\\u{1f34a}",
  ":leftright_arrow:": "\\u{2194}\\u{FE0F}",
  ":sunrise:": "\\u{1f305}",
  ":poultry_leg:": "\\u{1f357}",
  ":blue_circle:": "\\u{1f535}",
  ":oncoming_automobile:": "\\u{1f698}",
  ":shaved_ice:": "\\u{1f367}",
  ":it:": "\\u{1F1EE}\\u{1F1F9}",
  ":bird:": "\\u{1f426}",
  ":gb:": "\\u{1F1EC}\\u{1F1E7}",
  ":first_quarter_moon_with_face:": "\\u{1f31b}",
  ":eyeglasses:": "\\u{1f453}",
  ":goat:": "\\u{1f410}",
  ":night_with_stars:": "\\u{1f303}",
  ":older_woman:": "\\u{1f475}",
  ":black_circle:": "\\u{26ab}",
  ":new_moon:": "\\u{1f311}",
  ":two_men_holding_hands:": "\\u{1f46c}",
  ":white_circle:": "\\u{26aa}",
  ":customs:": "\\u{1f6c3}",
  ":tropical_fish:": "\\u{1f420}",
  ":house:": "\\u{1f3e0}",
  ":arrows_clockwise:": "\\u{1f503}",
  ":last_quarter_moon_with_face:": "\\u{1f31c}",
  ":round_pushpin:": "\\u{1f4cd}",
  ":full_moon:": "\\u{1f315}",
  ":athletic_shoe:": "\\u{1f45f}",
  ":lemon:": "\\u{1f34b}",
  ":baby_bottle:": "\\u{1f37c}",
  ":artist_palette:": "\\u{1F3A8}",
  ":envelope:": "\\u{2709}",
  ":spaghetti:": "\\u{1f35d}",
  ":wind_chime:": "\\u{1f390}",
  ":fish_cake:": "\\u{1f365}",
  ":evergreen_tree:": "\\u{1f332}",
  ":up:": "\\u{1f199}",
  ":arrow_up:": "\\u{2b06}",
  ":arrow_upper_right:": "\\u{2197}",
  ":arrow_lower_right:": "\\u{2198}",
  ":arrow_lower_left:": "\\u{2199}",
  ":performing_arts:": "\\u{1f3ad}",
  ":nose:": "\\u{1f443}",
  ":pig_nose:": "\\u{1f43d}",
  ":fish:": "\\u{1f41f}",
  ":woman_wearing_turban:": "\\u{1F473}\\u{200D}\\u{2640}\\u{FE0F}",
  ":man_with_turban:": "\\u{1f473}",
  ":koala:": "\\u{1f428}",
  ":ear:": "\\u{1f442}",
  ":eight_spoked_asterisk:": "\\u{2733}",
  ":small_blue_diamond:": "\\u{1f539}",
  ":shower:": "\\u{1f6bf}",
  ":bug:": "\\u{1f41b}",
  ":ramen:": "\\u{1f35c}",
  ":tophat:": "\\u{1f3a9}",
  ":bride_with_veil:": "\\u{1f470}",
  ":fuelpump:": "\\u{26fd}",
  ":checkered_flag:": "\\u{1f3c1}",
  ":horse:": "\\u{1f434}",
  ":watch:": "\\u{231a}",
  ":monkey_face:": "\\u{1f435}",
  ":baby_symbol:": "\\u{1f6bc}",
  ":new:": "\\u{1f195}",
  ":free:": "\\u{1f193}",
  ":sparkler:": "\\u{1f387}",
  ":corn:": "\\u{1f33d}",
  ":tennis:": "\\u{1f3be}",
  ":alarm_clock:": "\\u{23f0}",
  ":battery:": "\\u{1f50b}",
  ":grey_exclamation:": "\\u{2755}",
  ":wolf:": "\\u{1f43a}",
  ":moyai:": "\\u{1f5ff}",
  ":cow:": "\\u{1f42e}",
  ":mega:": "\\u{1f4e3}",
  ":older_man:": "\\u{1f474}",
  ":dress:": "\\u{1f457}",
  ":link:": "\\u{1f517}",
  ":chicken:": "\\u{1f414}",
  ":cooking:": "\\u{1F373}",
  ":whale2:": "\\u{1f40b}",
  ":arrow_upper_left:": "\\u{2196}",
  ":deciduous_tree:": "\\u{1f333}",
  ":bento:": "\\u{1f371}",
  ":pushpin:": "\\u{1f4cc}",
  ":soon:": "\\u{1f51c}",
  ":repeat:": "\\u{1f501}",
  ":dragon:": "\\u{1f409}",
  ":hamster:": "\\u{1f439}",
  ":golf:": "\\u{26f3}",
  ":woman_surfing:": "\\u{1F3C4}\\u{200D}\\u{2640}\\u{FE0F}",
  ":surfer:": "\\u{1f3c4}",
  ":mouse:": "\\u{1f42d}",
  ":waxing_crescent_moon:": "\\u{1f312}",
  ":blue_car:": "\\u{1f699}",
  ":a:": "\\u{1f170}",
  ":interrobang:": "\\u{2049}",
  ":u5272:": "\\u{1f239}",
  ":electric_plug:": "\\u{1f50c}",
  ":first_quarter_moon:": "\\u{1f313}",
  ":cancer:": "\\u{264b}",
  ":trident:": "\\u{1f531}",
  ":bread:": "\\u{1f35e}",
  ":woman_police_officer:": "\\u{1F46E}\\u{200D}\\u{2640}\\u{FE0F}",
  ":cop:": "\\u{1f46e}",
  ":tea:": "\\u{1f375}",
  ":fishing_pole_and_fish:": "\\u{1f3a3}",
  ":waxing_gibbous_moon:": "\\u{1F314}",
  ":bike:": "\\u{1f6b2}",
  ":bust_in_silhouette:": "\\u{1F464}",
  ":rice:": "\\u{1f35a}",
  ":radio:": "\\u{1f4fb}",
  ":baby_chick:": "\\u{1f424}",
  ":arrow_heading_down:": "\\u{2935}",
  ":waning_crescent_moon:": "\\u{1f318}",
  ":arrow_up_down:": "\\u{2195}",
  ":last_quarter_moon:": "\\u{1f317}",
  ":radio_button:": "\\u{1f518}",
  ":sheep:": "\\u{1f411}",
  ":blond_hair:": "\\u{1F471}\\u{200D}\\u{2642}",
  ":person_with_blond_hair:": "\\u{1f471}",
  ":waning_gibbous_moon:": "\\u{1f316}",
  ":lock:": "\\u{1f512}",
  ":green_apple:": "\\u{1f34f}",
  ":japanese_goblin:": "\\u{1f47a}",
  ":curly_loop:": "\\u{27b0}",
  ":triangular_flag_on_post:": "\\u{1f6a9}",
  ":arrows_counterclockwise:": "\\u{1f504}",
  ":racehorse:": "\\u{1f40e}",
  ":fried_shrimp:": "\\u{1f364}",
  ":sunrise_over_mountains:": "\\u{1f304}",
  ":volcano:": "\\u{1f30b}",
  ":rooster:": "\\u{1f413}",
  ":inbox_tray:": "\\u{1f4e5}",
  ":wedding:": "\\u{1f492}",
  ":sushi:": "\\u{1f363}",
  ":wavy_dash:": "\\u{3030}\\u{FE0F}",
  ":ice_cream:": "\\u{1f368}",
  ":rewind:": "\\u{23ea}",
  ":tomato:": "\\u{1f345}",
  ":rabbit2:": "\\u{1f407}",
  ":eight_pointed_black_star:": "\\u{2734}",
  ":small_red_triangle:": "\\u{1f53a}",
  ":high_brightness:": "\\u{1f506}",
  ":heavy_plus_sign:": "\\u{2795}",
  ":man_with_gua_pi_mao:": "\\u{1f472}",
  ":convenience_store:": "\\u{1f3ea}",
  ":busts_in_silhouette:": "\\u{1f465}",
  ":beetle:": "\\u{1f41e}",
  ":small_red_triangle_down:": "\\u{1f53b}",
  ":ger:": "\\u{1F1E9}\\u{1F1EA}",
  ":arrow_heading_up:": "\\u{2934}",
  ":name_badge:": "\\u{1f4db}",
  ":bath:": "\\u{1f6c0}",
  ":no_entry:": "\\u{26d4}",
  ":crocodile:": "\\u{1f40a}",
  ":chestnut:": "\\u{1F330}",
  ":dog2:": "\\u{1f415}",
  ":cat2:": "\\u{1f408}",
  ":hammer:": "\\u{1f528}",
  ":meat_on_bone:": "\\u{1f356}",
  ":shell:": "\\u{1f41a}",
  ":sparkle:": "\\u{2747}",
  ":sailboat:": "\\u{26F5}",
  ":b:": "\\u{1f171}",
  ":m:": "\\u{24c2}",
  ":poodle:": "\\u{1f429}",
  ":aquarius:": "\\u{2652}",
  ":stew:": "\\u{1f372}",
  ":jeans:": "\\u{1f456}",
  ":honey_pot:": "\\u{1f36f}",
  ":musical_keyboard:": "\\u{1f3b9}",
  ":unlock:": "\\u{1f513}",
  ":black_nib:": "\\u{2712}\\u{FE0F}",
  ":statue_of_liberty:": "\\u{1f5fd}",
  ":heavy_dollar_sign:": "\\u{1f4b2}",
  ":snowboarder:": "\\u{1f3c2}",
  ":white_flower:": "\\u{1f4ae}",
  ":necktie:": "\\u{1f454}",
  ":diamond_shape_with_a_dot_inside:": "\\u{1f4a0}",
  ":aries:": "\\u{2648}",
  ":womens:": "\\u{1f6ba}",
  ":ant:": "\\u{1f41c}",
  ":scorpius:": "\\u{264f}",
  ":city_sunset:": "\\u{1f307}",
  ":hourglass_flowing_sand:": "\\u{23f3}",
  ":o2:": "\\u{1f17e}",
  ":dragon_face:": "\\u{1f432}",
  ":snail:": "\\u{1f40c}",
  ":dvd:": "\\u{1f4c0}",
  ":shirt:": "\\u{1f455}",
  ":game_die:": "\\u{1f3b2}",
  ":heavy_minus_sign:": "\\u{2796}",
  ":dolls:": "\\u{1f38e}",
  ":sagittarius:": "\\u{2650}",
  ":8ball:": "\\u{1f3b1}",
  ":bus:": "\\u{1f68c}",
  ":custard:": "\\u{1f36e}",
  ":crossed_flags:": "\\u{1f38c}",
  ":part_alternation_mark:": "\\u{303D}",
  ":camel:": "\\u{1f42b}",
  ":curry:": "\\u{1f35b}",
  ":steam_locomotive:": "\\u{1f682}",
  ":hospital:": "\\u{1f3e5}",
  ":jp:": "\\u{1F1EF}\\u{1F1F5}",
  ":large_blue_diamond:": "\\u{1f537}",
  ":tanabata_tree:": "\\u{1f38b}",
  ":bell:": "\\u{1f514}",
  ":leo:": "\\u{264c}",
  ":gemini:": "\\u{264a}",
  ":pear:": "\\u{1f350}",
  ":large_orange_diamond:": "\\u{1f536}",
  ":taurus:": "\\u{2649}",
  ":globe_with_meridians:": "\\u{1f310}",
  ":door:": "\\u{1f6aa}",
  ":clock6:": "\\u{1f555}",
  ":oncoming_police_car:": "\\u{1f694}",
  ":envelope_with_arrow:": "\\u{1f4e9}",
  ":closed_umbrella:": "\\u{1f302}",
  ":saxophone:": "\\u{1f3b7}",
  ":church:": "\\u{26ea}",
  ":woman_biking:": "\\u{1F6B4}\\u{200D}\\u{2640}\\u{FE0F}",
  ":bicyclist:": "\\u{1f6b4}",
  ":pisces:": "\\u{2653}",
  ":dango:": "\\u{1f361}",
  ":capricorn:": "\\u{2651}",
  ":office:": "\\u{1f3e2}",
  ":woman_rowing_boat:": "\\u{1F6A3}\\u{200D}\\u{2640}\\u{FE0F}",
  ":rowboat:": "\\u{1f6a3}",
  ":womans_hat:": "\\u{1f452}",
  ":mans_shoe:": "\\u{1f45e}",
  ":love_hotel:": "\\u{1f3e9}",
  ":mount_fuji:": "\\u{1f5fb}",
  ":dromedary_camel:": "\\u{1f42a}",
  ":handbag:": "\\u{1f45c}",
  ":hourglass:": "\\u{231b}",
  ":negative_squared_cross_mark:": "\\u{274e}",
  ":trumpet:": "\\u{1f3ba}",
  ":school:": "\\u{1f3eb}",
  ":cow2:": "\\u{1f404}",
  ":cityscape_at_dusk:": "\\u{1F306}",
  ":woman_construction_worker:": "\\u{1F477}\\u{200D}\\u{2640}\\u{FE0F}",
  ":construction_worker:": "\\u{1f477}",
  ":toilet:": "\\u{1f6bd}",
  ":pig2:": "\\u{1f416}",
  ":grey_question:": "\\u{2754}",
  ":beginner:": "\\u{1f530}",
  ":violin:": "\\u{1f3bb}",
  ":on:": "\\u{1f51b}",
  ":credit_card:": "\\u{1f4b3}",
  ":id:": "\\u{1f194}",
  ":secret:": "\\u{3299}",
  ":ferris_wheel:": "\\u{1f3a1}",
  ":bowling:": "\\u{1f3b3}",
  ":libra:": "\\u{264e}",
  ":virgo:": "\\u{264d}",
  ":barber:": "\\u{1f488}",
  ":purse:": "\\u{1f45b}",
  ":roller_coaster:": "\\u{1f3a2}",
  ":rat:": "\\u{1f400}",
  ":date:": "\\u{1f4c5}",
  ":rugby_football:": "\\u{1f3c9}",
  ":ram:": "\\u{1f40f}",
  ":arrow_up_small:": "\\u{1f53c}",
  ":black_square_button:": "\\u{1f532}",
  ":mobile_phone_off:": "\\u{1f4f4}",
  ":tokyo_tower:": "\\u{1f5fc}",
  ":congratulations:": "\\u{3297}",
  ":kimono:": "\\u{1f458}",
  ":ru:": "\\u{1F1F7}\\u{1F1FA}",
  ":ship:": "\\u{1f6a2}",
  ":mag_right:": "\\u{1f50e}",
  ":mag:": "\\u{1f50d}",
  ":fire_engine:": "\\u{1f692}",
  ":clock1130:": "\\u{1f566}",
  ":police_car:": "\\u{1f693}",
  ":black_joker:": "\\u{1f0cf}",
  ":bridge_at_night:": "\\u{1f309}",
  ":package:": "\\u{1f4e6}",
  ":oncoming_taxi:": "\\u{1f696}",
  ":calendar:": "\\u{1f4c6}",
  ":horse_racing:": "\\u{1f3c7}",
  ":tiger2:": "\\u{1f405}",
  ":boot:": "\\u{1f462}",
  ":ambulance:": "\\u{1f691}",
  ":white_square_button:": "\\u{1f533}",
  ":boar:": "\\u{1f417}",
  ":school_satchel:": "\\u{1f392}",
  ":loop:": "\\u{27bf}",
  ":pound:": "\\u{1f4b7}",
  ":information_source:": "\\u{2139}",
  ":ox:": "\\u{1f402}",
  ":rice_ball:": "\\u{1f359}",
  ":vs:": "\\u{1f19a}",
  ":end:": "\\u{1f51a}",
  ":parking:": "\\u{1f17f}",
  ":sandal:": "\\u{1f461}",
  ":tent:": "\\u{26fa}",
  ":seat:": "\\u{1f4ba}",
  ":taxi:": "\\u{1f695}",
  ":black_medium_small_square:": "\\u{25fe}",
  ":briefcase:": "\\u{1f4bc}",
  ":newspaper:": "\\u{1f4f0}",
  ":circus_tent:": "\\u{1f3aa}",
  ":six_pointed_star:": "\\u{1f52f}",
  ":mens:": "\\u{1f6b9}",
  ":european_castle:": "\\u{1f3f0}",
  ":flashlight:": "\\u{1f526}",
  ":foggy:": "\\u{1f301}",
  ":arrow_double_up:": "\\u{23eb}",
  ":bamboo:": "\\u{1f38d}",
  ":ticket:": "\\u{1f3ab}",
  ":helicopter:": "\\u{1f681}",
  ":minidisc:": "\\u{1f4bd}",
  ":oncoming_bus:": "\\u{1f68d}",
  ":melon:": "\\u{1f348}",
  ":white_small_square:": "\\u{25AB}\\u{FE0F}",
  ":european_post_office:": "\\u{1f3e4}",
  ":keycap_ten:": "\\u{1f51f}",
  ":notebook:": "\\u{1f4d3}",
  ":no_bell:": "\\u{1f515}",
  ":oden:": "\\u{1f362}",
  ":flags:": "\\u{1f38f}",
  ":carousel_horse:": "\\u{1f3a0}",
  ":blowfish:": "\\u{1f421}",
  ":chart_with_upwards_trend:": "\\u{1f4c8}",
  ":sweet_potato:": "\\u{1f360}",
  ":ski:": "\\u{1f3bf}",
  ":clock12:": "\\u{1f55b}",
  ":signal_strength:": "\\u{1f4f6}",
  ":construction:": "\\u{1f6a7}",
  ":black_medium_square:": "\\u{25fc}",
  ":satellite:": "\\u{1F6F0}\\u{FE0F}",
  ":euro:": "\\u{1f4b6}",
  ":womans_clothes:": "\\u{1f45a}",
  ":ledger:": "\\u{1f4d2}",
  ":leopard:": "\\u{1f406}",
  ":low_brightness:": "\\u{1f505}",
  ":clock3:": "\\u{1f552}",
  ":department_store:": "\\u{1f3ec}",
  ":truck:": "\\u{1f69a}",
  ":sake:": "\\u{1f376}",
  ":railway_car:": "\\u{1f683}",
  ":speedboat:": "\\u{1f6a4}",
  ":ko:": "\\u{1F1F0}\\u{1F1F7}",
  ":vhs:": "\\u{1f4fc}",
  ":clock1:": "\\u{1f550}",
  ":arrow_double_down:": "\\u{23ec}",
  ":water_buffalo:": "\\u{1f403}",
  ":arrow_down_small:": "\\u{1f53d}",
  ":yen:": "\\u{1f4b4}",
  ":mute:": "\\u{1f507}",
  ":running_shirt_with_sash:": "\\u{1f3bd}",
  ":white_large_square:": "\\u{2b1c}",
  ":wheelchair:": "\\u{267f}",
  ":clock2:": "\\u{1f551}",
  ":paperclip:": "\\u{1f4ce}",
  ":atm:": "\\u{1f3e7}",
  ":cinema:": "\\u{1f3a6}",
  ":telescope:": "\\u{1f52d}",
  ":rice_scene:": "\\u{1f391}",
  ":blue_book:": "\\u{1f4d8}",
  ":white_medium_square:": "\\u{25fb}",
  ":postbox:": "\\u{1f4ee}",
  ":e-mail:": "\\u{1f4e7}",
  ":mouse2:": "\\u{1f401}",
  ":bullettrain_side:": "\\u{1f684}",
  ":ideograph_advantage:": "\\u{1f250}",
  ":nut_and_bolt:": "\\u{1f529}",
  ":ng:": "\\u{1f196}",
  ":hotel:": "\\u{1f3e8}",
  ":wc:": "\\u{1f6be}",
  ":izakaya_lantern:": "\\u{1f3ee}",
  ":repeat_one:": "\\u{1f502}",
  ":mailbox_with_mail:": "\\u{1f4ec}",
  ":chart_with_downwards_trend:": "\\u{1f4c9}",
  ":green_book:": "\\u{1f4d7}",
  ":tractor:": "\\u{1f69c}",
  ":fountain:": "\\u{26f2}",
  ":metro:": "\\u{1f687}",
  ":clipboard:": "\\u{1f4cb}",
  ":no_mobile_phones:": "\\u{1f4f5}",
  ":clock4:": "\\u{1f553}",
  ":no_smoking:": "\\u{1f6ad}",
  ":black_large_square:": "\\u{2b1b}",
  ":slot_machine:": "\\u{1f3b0}",
  ":clock5:": "\\u{1f554}",
  ":bathtub:": "\\u{1f6c1}",
  ":scroll:": "\\u{1f4dc}",
  ":station:": "\\u{1f689}",
  ":rice_cracker:": "\\u{1f358}",
  ":bank:": "\\u{1f3e6}",
  ":wrench:": "\\u{1f527}",
  ":u6307:": "\\u{1f22f}",
  ":articulated_lorry:": "\\u{1f69b}",
  ":page_facing_up:": "\\u{1f4c4}",
  ":ophiuchus:": "\\u{26ce}",
  ":bar_chart:": "\\u{1f4ca}",
  ":no_pedestrians:": "\\u{1f6b7}",
  ":cn:": "\\u{1F1E8}\\u{1F1F3}",
  ":vibration_mode:": "\\u{1f4f3}",
  ":clock10:": "\\u{1f559}",
  ":clock9:": "\\u{1f558}",
  ":bullettrain_front:": "\\u{1f685}",
  ":minibus:": "\\u{1f690}",
  ":tram:": "\\u{1f68a}",
  ":clock8:": "\\u{1f557}",
  ":u7a7a:": "\\u{1f233}",
  ":traffic_light:": "\\u{1f6a5}",
  ":woman_mountain_biking:": "\\u{1F6B5}\\u{200D}\\u{2640}\\u{FE0F}",
  ":mountain_bicyclist:": "\\u{1f6b5}",
  ":microscope:": "\\u{1f52c}",
  ":japanese_castle:": "\\u{1f3ef}",
  ":bookmark:": "\\u{1f516}",
  ":bookmark_tabs:": "\\u{1f4d1}",
  ":pouch:": "\\u{1f45d}",
  ":ab:": "\\u{1f18e}",
  ":page_with_curl:": "\\u{1f4c3}",
  ":flower_playing_cards:": "\\u{1f3b4}",
  ":clock11:": "\\u{1f55a}",
  ":fax:": "\\u{1f4e0}",
  ":clock7:": "\\u{1f556}",
  ":white_medium_small_square:": "\\u{25fd}",
  ":currency_exchange:": "\\u{1f4b1}",
  ":sound:": "\\u{1f509}",
  ":chart:": "\\u{1f4b9}",
  ":cl:": "\\u{1f191}",
  ":floppy_disk:": "\\u{1f4be}",
  ":post_office:": "\\u{1f3e3}",
  ":speaker:": "\\u{1f508}",
  ":japan:": "\\u{1f5fe}",
  ":u55b6:": "\\u{1f23a}",
  ":mahjong:": "\\u{1f004}",
  ":incoming_envelope:": "\\u{1f4e8}",
  ":orange_book:": "\\u{1f4d9}",
  ":restroom:": "\\u{1f6bb}",
  ":u7121:": "\\u{1f21a}",
  ":u6709:": "\\u{1f236}",
  ":triangular_ruler:": "\\u{1f4d0}",
  ":train:": "\\u{1f68b}",
  ":u7533:": "\\u{1f238}",
  ":trolleybus:": "\\u{1f68e}",
  ":u6708:": "\\u{1f237}",
  ":input_numbers:": "\\u{1F522}",
  ":notebook_with_decorative_cover:": "\\u{1f4d4}",
  ":u7981:": "\\u{1f232}",
  ":u6e80:": "\\u{1f235}",
  ":postal_horn:": "\\u{1f4ef}",
  ":factory:": "\\u{1f3ed}",
  ":children_crossing:": "\\u{1f6b8}",
  ":train2:": "\\u{1f686}",
  ":straight_ruler:": "\\u{1f4cf}",
  ":pager:": "\\u{1f4df}",
  ":accept:": "\\u{1f251}",
  ":u5408:": "\\u{1f234}",
  ":lock_with_ink_pen:": "\\u{1f50f}",
  ":clock130:": "\\u{1f55c}",
  ":sa:": "\\u{1f202}",
  ":outbox_tray:": "\\u{1f4e4}",
  ":twisted_rightwards_arrows:": "\\u{1f500}",
  ":mailbox:": "\\u{1f4eb}",
  ":light_rail:": "\\u{1f688}",
  ":clock930:": "\\u{1f564}",
  ":busstop:": "\\u{1f68f}",
  ":open_file_folder:": "\\u{1f4c2}",
  ":file_folder:": "\\u{1f4c1}",
  ":potable_water:": "\\u{1f6b0}",
  ":card_index:": "\\u{1f4c7}",
  ":clock230:": "\\u{1f55d}",
  ":monorail:": "\\u{1f69d}",
  ":clock1230:": "\\u{1f567}",
  ":clock1030:": "\\u{1f565}",
  ":abc:": "\\u{1f524}",
  ":mailbox_closed:": "\\u{1f4ea}",
  ":clock430:": "\\u{1f55f}",
  ":mountain_railway:": "\\u{1f69e}",
  ":do_not_litter:": "\\u{1f6af}",
  ":clock330:": "\\u{1f55e}",
  ":heavy_division_sign:": "\\u{2797}",
  ":clock730:": "\\u{1f562}",
  ":clock530:": "\\u{1f560}",
  ":capital_abcd:": "\\u{1f520}",
  ":mailbox_with_no_mail:": "\\u{1f4ed}",
  ":symbols:": "\\u{1f523}",
  ":aerial_tramway:": "\\u{1f6a1}",
  ":clock830:": "\\u{1f563}",
  ":clock630:": "\\u{1f561}",
  ":abcd:": "\\u{1f521}",
  ":mountain_cableway:": "\\u{1f6a0}",
  ":koko:": "\\u{1f201}",
  ":passport_control:": "\\u{1f6c2}",
  ":non-potable_water:": "\\u{1f6b1}",
  ":suspension_railway:": "\\u{1f69f}",
  ":baggage_claim:": "\\u{1f6c4}",
  ":no_bicycles:": "\\u{1f6b3}",
  ":rainbow_flag:": "\\u{1F3F3}\\u{FE0F}\\u{200D}\\u{1F308}",
  ":woman_detective:": "\\u{1F575}\\u{FE0F}\\u{200D}\\u{2640}",
  ":detective:": "\\u{1F575}\\u{FE0F}",
  ":frowning_face:": "\\u{2639}\\u{FE0F}",
  ":skull_crossbones:": "\\u{2620}",
  ":hugging:": "\\u{1f917}",
  ":robot:": "\\u{1F916}",
  ":face_with_headbandage:": "\\u{1F915}",
  ":thinking:": "\\u{1f914}",
  ":nerd:": "\\u{1f913}",
  ":face_with_thermometer:": "\\u{1F912}",
  ":moneymouth_face:": "\\u{1F911}",
  ":zipper_mouth:": "\\u{1f910}",
  ":rolling_eyes:": "\\u{1f644}",
  ":upside_down:": "\\u{1f643}",
  ":slight_smile:": "\\u{1f642}",
  ":slightly_frowning_face:": "\\u{1F641}",
  ":sign_of_the_horns:": "\\u{1F918}",
  ":vulcan_salute:": "\\u{1F596}",
  ":middle_finger:": "\\u{1f595}",
  ":hand_with_fingers_splayed:": "\\u{1F590}\\u{FE0F}",
  ":writing_hand:": "\\u{270D}\\u{FE0F}",
  ":dark_sunglasses:": "\\u{1f576}",
  ":eye_speachbubble:": "\\u{1F441}\\u{200D}\\u{1F5E8}",
  ":eye:": "\\u{1F441}\\u{FE0F}",
  ":weightlifter_woman_dt:": "\\u{1F3CB}\\u{1F3FF}\\u{200D}\\u{2640}",
  ":weightlifter_woman_mdt:": "\\u{1F3CB}\\u{1F3FE}\\u{200D}\\u{2640}",
  ":weightlifter_woman_mt:": "\\u{1F3CB}\\u{1F3FD}\\u{200D}\\u{2640}",
  ":weightlifter_woman_mlt:": "\\u{1F3CB}\\u{1F3FC}\\u{200D}\\u{2640}",
  ":weightlifter_woman_lt:": "\\u{1F3CB}\\u{1F3FB}\\u{200D}\\u{2640}",
  ":weightlifter_woman:": "\\u{1F3CB}\\u{200D}\\u{2640}",
  ":weightlifter_dt:": "\\u{1F3CB}\\u{1F3FF}",
  ":weightlifter_mdt:": "\\u{1F3CB}\\u{1F3FE}",
  ":weightlifter_mt:": "\\u{1F3CB}\\u{1F3FD}",
  ":weightlifter_mlt:": "\\u{1F3CB}\\u{1F3FC}",
  ":weightlifter_lt:": "\\u{1F3CB}\\u{1F3FB}",
  ":weightlifter:": "\\u{1F3CB}",
  ":basketballer_woman_dt:": "\\u{:basketballer:}",
  ":basketballer_woman_mdt:": "\\u{:basketballer:}",
  ":basketballer_woman_mt:": "\\u{:basketballer:}",
  ":basketballer_woman_mlt:": "\\u{:basketballer:}",
  ":basketballer_woman_lt:": "\\u{:basketballer:}",
  ":woman_bouncing_ball:": "\\u{26F9}\\u{FE0F}\\u{200D}\\u{2640}",
  ":basketballer_lt:": "\\u{26F9}\\u{1F3FB}",
  ":basketballer:": "\\u{26F9}",
  ":man_in_suit:": "\\u{1f574}",
  ":golfer:": "\\u{1f3cc}",
  ":golfer_woman:": "\\u{1F3CC}\\u{200D}\\u{2640}",
  "*": "\\u{0023}\\u{FE0F}\\u{20E3}",
  ":heart_exclamation:": "\\u{2763}",
  ":star_of_david:": "\\u{2721}",
  ":cross:": "\\u{271d}",
  ":fleur-de-lis:": "\\u{269c}",
  ":atom:": "\\u{269b}",
  ":wheel_of_dharma:": "\\u{2638}\\u{FE0F}",
  ":yin_yang:": "\\u{262F}\\u{FE0F}",
  ":peace:": "\\u{262e}",
  ":star_and_crescent:": "\\u{262A}\\u{FE0F}",
  ":orthodox_cross:": "\\u{2626}\\u{FE0F}",
  ":biohazard:": "\\u{2623}\\u{FE0F}",
  ":radioactive:": "\\u{2622}\\u{FE0F}",
  ":place_of_worship:": "\\u{1f6d0}",
  ":anger_right:": "\\u{1f5ef}",
  ":menorah:": "\\u{1f54e}",
  ":om_symbol:": "\\u{1f549}",
  ":funeral_urn:": "\\u{26B1}\\u{FE0F}",
  ":coffin:": "\\u{26B0}\\u{FE0F}",
  ":gear:": "\\u{2699}\\u{FE0F}",
  ":alembic:": "\\u{2697}\\u{FE0F}",
  ":scales:": "\\u{2696}",
  ":crossed_swords:": "\\u{2694}\\u{FE0F}",
  ":keyboard:": "\\u{2328}\\u{FE0F}",
  ":oil_drum:": "\\u{1F6E2}\\u{FE0F}",
  ":shield:": "\\u{1F6E1}\\u{FE0F}",
  ":hammer_and_wrench:": "\\u{1F6E0}\\u{FE0F}",
  ":bed:": "\\u{1F6CF}\\u{FE0F}",
  ":bellhop_bell:": "\\u{1F6CE}\\u{FE0F}",
  ":shopping_bags:": "\\u{1F6CD}\\u{FE0F}",
  ":sleeping_accommodation:": "\\u{1f6cc}",
  ":couch_and_lamp:": "\\u{1F6CB}\\u{FE0F}",
  ":ballot_box:": "\\u{1f5f3}",
  ":dagger:": "\\u{1F5E1}\\u{FE0F}",
  ":rolledup_newspaper:": "\\u{1F5DE}\\u{FE0F}",
  ":old_key:": "\\u{1F5DD}\\u{FE0F}",
  ":compression:": "\\u{1f5dc}",
  ":spiral_calendar:": "\\u{1F5D3}\\u{FE0F}",
  ":spiral_notepad:": "\\u{1F5D2}\\u{FE0F}",
  ":wastebasket:": "\\u{1F5D1}\\u{FE0F}",
  ":file_cabinet:": "\\u{1F5C4}\\u{FE0F}",
  ":card_file_box:": "\\u{1F5C3}\\u{FE0F}",
  ":card_index_dividers:": "\\u{1F5C2}\\u{FE0F}",
  ":framed_picture:": "\\u{1F5BC}\\u{FE0F}",
  ":trackball:": "\\u{1F5B2}\\u{FE0F}",
  ":computer_mouse:": "\\u{1F5B1}\\u{FE0F}",
  ":printer:": "\\u{1F5A8}\\u{FE0F}",
  ":desktop_computer:": "\\u{1F5A5}\\u{FE0F}",
  ":crayon:": "\\u{1F58D}\\u{FE0F}",
  ":paintbrush:": "\\u{1F58C}\\u{FE0F}",
  ":fountain_pen:": "\\u{1F58B}\\u{FE0F}",
  ":pen:": "\\u{1F58A}\\u{FE0F}",
  ":linked_paperclips:": "\\u{1F587}\\u{FE0F}",
  ":joystick:": "\\u{1F579}\\u{FE0F}",
  ":hole:": "\\u{1F573}\\u{FE0F}",
  ":mantelpiece_clock:": "\\u{1F570}\\u{FE0F}",
  ":candle:": "\\u{1F56F}\\u{FE0F}",
  ":prayer_beads:": "\\u{1f4ff}",
  ":film_projector:": "\\u{1F4FD}\\u{FE0F}",
  ":camera_with_flash:": "\\u{1f4f8}",
  ":amphora:": "\\u{1f3fa}",
  ":label:": "\\u{1F3F7}\\u{FE0F}",
  ":flag_black:": "\\u{1f3f4}",
  ":flag_white:": "\\u{1f3f3}",
  ":film_frames:": "\\u{1F39E}\\u{FE0F}",
  ":control_knobs:": "\\u{1F39B}\\u{FE0F}",
  ":level_slider:": "\\u{1F39A}\\u{FE0F}",
  ":studio_microphone:": "\\u{1F399}\\u{FE0F}",
  ":thermometer:": "\\u{1F321}\\u{FE0F}",
  ":passenger_ship:": "\\u{1F6F3}\\u{FE0F}",
  ":airplane_arriving:": "\\u{1f6ec}",
  ":airplane_departure:": "\\u{1f6eb}",
  ":small_airplane:": "\\u{1F6E9}\\u{FE0F}",
  ":motor_boat:": "\\u{1F6E5}\\u{FE0F}",
  ":railway_track:": "\\u{1F6E4}\\u{FE0F}",
  ":motorway:": "\\u{1F6E3}\\u{FE0F}",
  ":world_map:": "\\u{1F5FA}\\u{FE0F}",
  ":synagogue:": "\\u{1f54d}",
  ":mosque:": "\\u{1f54c}",
  ":kaaba:": "\\u{1f54b}",
  ":stadium:": "\\u{1F3DF}\\u{FE0F}",
  ":national_park:": "\\u{1F3DE}\\u{FE0F}",
  ":desert_island:": "\\u{1F3DD}\\u{FE0F}",
  ":desert:": "\\u{1F3DC}\\u{FE0F}",
  ":classical_building:": "\\u{1F3DB}\\u{FE0F}",
  ":derelict_house:": "\\u{1F3DA}\\u{FE0F}",
  ":cityscape:": "\\u{1F3D9}\\u{FE0F}",
  ":houses:": "\\u{1F3D8}\\u{FE0F}",
  ":building_construction:": "\\u{1F3D7}\\u{FE0F}",
  ":beach_with_umbrella:": "\\u{1F3D6}\\u{FE0F}",
  ":camping:": "\\u{1F3D5}\\u{FE0F}",
  ":snowcapped_mountain:": "\\u{1F3D4}\\u{FE0F}",
  ":racing_car:": "\\u{1F3CE}\\u{FE0F}",
  ":motorcycle:": "\\u{1F3CD}\\u{FE0F}",
  ":bow_and_arrow:": "\\u{1f3f9}",
  ":badminton:": "\\u{1F3F8}",
  ":rosette:": "\\u{1F3F5}\\u{FE0F}",
  ":ping_pong:": "\\u{1F3D3}",
  ":ice_hockey:": "\\u{1F3D2}",
  ":field_hockey:": "\\u{1F3D1}",
  ":volleyball:": "\\u{1f3d0}",
  ":cricket_game:": "\\u{1F3CF}",
  ":medal:": "\\u{1f3c5}",
  ":admission_tickets:": "\\u{1F39F}\\u{FE0F}",
  ":reminder_ribbon:": "\\u{1F397}\\u{FE0F}",
  ":military_medal:": "\\u{1F396}\\u{FE0F}",
  ":cheese_wedge:": "\\u{1F9C0}",
  ":popcorn:": "\\u{1f37f}",
  ":champagne:": "\\u{1f37e}",
  ":fork_and_knife_with_plate:": "\\u{1F37D}\\u{FE0F}",
  ":hot_pepper:": "\\u{1F336}\\u{FE0F}",
  ":burrito:": "\\u{1f32f}",
  ":taco:": "\\u{1f32e}",
  ":hotdog:": "\\u{1f32d}",
  ":shamrock:": "\\u{2618}\\u{FE0F}",
  ":comet:": "\\u{2604}\\u{FE0F}",
  ":unicorn:": "\\u{1F984}",
  ":turkey:": "\\u{1f983}",
  ":scorpion:": "\\u{1f982}",
  ":lion_face:": "\\u{1f981}",
  ":crab:": "\\u{1f980}",
  ":spider_web:": "\\u{1F578}\\u{FE0F}",
  ":spider:": "\\u{1F577}\\u{FE0F}",
  ":dove:": "\\u{1F54A}\\u{FE0F}",
  ":chipmunk:": "\\u{1F43F}\\u{FE0F}",
  ":wind_blowing_face:": "\\u{1f32c}",
  ":fog:": "\\u{1F32B}\\u{FE0F}",
  ":tornado:": "\\u{1F32A}\\u{FE0F}",
  ":cloud_with_lightning:": "\\u{1F329}\\u{FE0F}",
  ":cloud_with_snow:": "\\u{1F328}\\u{FE0F}",
  ":cloud_with_rain:": "\\u{1F327}\\u{FE0F}",
  ":sun_behind_rain_cloud:": "\\u{1F326}\\u{FE0F}",
  ":sun_behind_large_cloud:": "\\u{1F325}\\u{FE0F}",
  ":sun_behind_small_cloud:": "\\u{1F324}\\u{FE0F}",
  ":speaking_head:": "\\u{1F5E3}\\u{FE0F}",
  ":record_button:": "\\u{23FA}\\u{FE0F}",
  ":stop_button:": "\\u{23F9}\\u{FE0F}",
  ":pause_button:": "\\u{23F8}\\u{FE0F}",
  ":play_pause:": "\\u{23ef}",
  ":track_previous:": "\\u{23ee}",
  ":track_next:": "\\u{23ed}",
  ":beach_umbrella:": "\\u{26f1}",
  ":chains:": "\\u{26D3}\\u{FE0F}",
  ":pick:": "\\u{26CF}\\u{FE0F}",
  ":hammer_and_pick:": "\\u{2692}\\u{FE0F}",
  ":timer_clock:": "\\u{23F2}\\u{FE0F}",
  ":stopwatch:": "\\u{23F1}\\u{FE0F}",
  ":ferry:": "\\u{26F4}\\u{FE0F}",
  ":mountain:": "\\u{26F0}\\u{FE0F}",
  ":shinto_shrine:": "\\u{26E9}\\u{FE0F}",
  ":ice_skate:": "\\u{26F8}\\u{FE0F}",
  ":skier:": "\\u{26F7}\\u{FE0F}",
  ":cloud_with_lightning_and_rain:": "\\u{26C8}\\u{FE0F}",
  ":rescue_worker’s_helmet:": "\\u{26D1}\\u{FE0F}",
  ":flag_ac:": "\\u{1f1e6-1f1e8}",
  ":flag_ad:": "\\u{1f1e6-1f1e9}",
  ":flag_ae:": "\\u{1f1e6-1f1ea}",
  ":flag_af:": "\\u{1f1e6-1f1eb}",
  ":flag_ag:": "\\u{1f1e6-1f1ec}",
  ":flag_ai:": "\\u{1f1e6-1f1ee}",
  ":flag_al:": "\\u{1f1e6-1f1f1}",
  ":flag_am:": "\\u{1f1e6-1f1f2}",
  ":flag-ao:": "\\u{1f1e6-1f1f4}",
  ":flag-aq:": "\\u{1f1e6-1f1f6}",
  ":flag-ar:": "\\u{1f1e6-1f1f7}",
  ":flag-as:": "\\u{1f1e6-1f1f8}",
  ":flag-at:": "\\u{1f1e6-1f1f9}",
  ":flag-au:": "\\u{1f1e6-1f1fa}",
  ":flag-aw:": "\\u{1f1e6-1f1fc}",
  ":flag-ax:": "\\u{1f1e6-1f1fd}",
  ":flag-az:": "\\u{1f1e6-1f1ff}",
  ":flag-ba:": "\\u{1f1e7-1f1e6}",
  ":flag-bb:": "\\u{1f1e7-1f1e7}",
  ":flag-bd:": "\\u{1f1e7-1f1e9}",
  ":flag-be:": "\\u{1f1e7-1f1ea}",
  ":flag-bf:": "\\u{1f1e7-1f1eb}",
  ":flag-bg:": "\\u{1f1e7-1f1ec}",
  ":flag-bh:": "\\u{1f1e7-1f1ed}",
  ":flag-bi:": "\\u{1f1e7-1f1ee}",
  ":flag-bj:": "\\u{1f1e7-1f1ef}",
  ":flag-bl:": "\\u{1f1e7-1f1f1}",
  ":flag-bm:": "\\u{1f1e7-1f1f2}",
  ":flag-bn:": "\\u{1f1e7-1f1f3}",
  ":flag-bo:": "\\u{1f1e7-1f1f4}",
  ":flag-bq:": "\\u{1f1e7-1f1f6}",
  ":flag-br:": "\\u{1f1e7-1f1f7}",
  ":flag-bs:": "\\u{1f1e7-1f1f8}",
  ":flag-bt:": "\\u{1f1e7-1f1f9}",
  ":flag-bv:": "\\u{1f1e7-1f1fb}",
  ":flag-bw:": "\\u{1f1e7-1f1fc}",
  ":flag-by:": "\\u{1f1e7-1f1fe}",
  ":flag-bz:": "\\u{1f1e7-1f1ff}",
  ":flag-ca:": "\\u{1f1e8-1f1e6}",
  ":flag-cc:": "\\u{1f1e8-1f1e8}",
  ":flag-cd:": "\\u{1f1e8-1f1e9}",
  ":flag-cf:": "\\u{1f1e8-1f1eb}",
  ":flag-cg:": "\\u{1f1e8-1f1ec}",
  ":flag-ch:": "\\u{1f1e8-1f1ed}",
  ":flag-ci:": "\\u{1f1e8-1f1ee}",
  ":flag-ck:": "\\u{1f1e8-1f1f0}",
  ":flag-cl:": "\\u{1f1e8-1f1f1}",
  ":flag-cm:": "\\u{1f1e8-1f1f2}",
  ":flag-cn:": "\\u{1f1e8-1f1f3}",
  ":flag-co:": "\\u{1f1e8-1f1f4}",
  ":flag-cp:": "\\u{1f1e8-1f1f5}",
  ":flag-cr:": "\\u{1f1e8-1f1f7}",
  ":flag-cu:": "\\u{1f1e8-1f1fa}",
  ":flag-cv:": "\\u{1f1e8-1f1fb}",
  ":flag-cw:": "\\u{1f1e8-1f1fc}",
  ":flag-cx:": "\\u{1f1e8-1f1fd}",
  ":flag-cy:": "\\u{1f1e8-1f1fe}",
  ":flag-cz:": "\\u{1f1e8-1f1ff}",
  ":flag-de:": "\\u{1f1e9-1f1ea}",
  ":flag-dg:": "\\u{1f1e9-1f1ec}",
  ":flag-dj:": "\\u{1f1e9-1f1ef}",
  ":flag-dk:": "\\u{1f1e9-1f1f0}",
  ":flag-dm:": "\\u{1f1e9-1f1f2}",
  ":flag-do:": "\\u{1f1e9-1f1f4}",
  ":flag-dz:": "\\u{1f1e9-1f1ff}",
  ":flag-ea:": "\\u{1f1ea-1f1e6}",
  ":flag-ec:": "\\u{1f1ea-1f1e8}",
  ":flag-ee:": "\\u{1f1ea-1f1ea}",
  ":flag-eg:": "\\u{1f1ea-1f1ec}",
  ":flag-eh:": "\\u{1f1ea-1f1ed}",
  ":flag-er:": "\\u{1f1ea-1f1f7}",
  ":flag-es:": "\\u{1f1ea-1f1f8}",
  ":flag-et:": "\\u{1f1ea-1f1f9}",
  ":flag-eu:": "\\u{1f1ea-1f1fa}",
  ":flag-fi:": "\\u{1f1eb-1f1ee}",
  ":flag-fj:": "\\u{1f1eb-1f1ef}",
  ":flag-fk:": "\\u{1f1eb-1f1f0}",
  ":flag-fm:": "\\u{1f1eb-1f1f2}",
  ":flag-fo:": "\\u{1f1eb-1f1f4}",
  ":flag-fr:": "\\u{1f1eb-1f1f7}",
  ":flag-ga:": "\\u{1f1ec-1f1e6}",
  ":flag-gb:": "\\u{1f1ec-1f1e7}",
  ":flag-gd:": "\\u{1f1ec-1f1e9}",
  ":flag-ge:": "\\u{1f1ec-1f1ea}",
  ":flag-gf:": "\\u{1f1ec-1f1eb}",
  ":flag-gg:": "\\u{1f1ec-1f1ec}",
  ":flag-gh:": "\\u{1f1ec-1f1ed}",
  ":flag-gi:": "\\u{1f1ec-1f1ee}",
  ":flag-gl:": "\\u{1f1ec-1f1f1}",
  ":flag-gm:": "\\u{1f1ec-1f1f2}",
  ":flag-gn:": "\\u{1f1ec-1f1f3}",
  ":flag-gp:": "\\u{1f1ec-1f1f5}",
  ":flag-gq:": "\\u{1f1ec-1f1f6}",
  ":flag-gr:": "\\u{1f1ec-1f1f7}",
  ":flag-gs:": "\\u{1f1ec-1f1f8}",
  ":flag-gt:": "\\u{1f1ec-1f1f9}",
  ":flag-gu:": "\\u{1f1ec-1f1fa}",
  ":flag-gw:": "\\u{1f1ec-1f1fc}",
  ":flag-gy:": "\\u{1f1ec-1f1fe}",
  ":flag-hk:": "\\u{1f1ed-1f1f0}",
  ":flag-hm:": "\\u{1f1ed-1f1f2}",
  ":flag-hn:": "\\u{1f1ed-1f1f3}",
  ":flag-hr:": "\\u{1f1ed-1f1f7}",
  ":flag-ht:": "\\u{1f1ed-1f1f9}",
  ":flag-hu:": "\\u{1f1ed-1f1fa}",
  ":flag-ic:": "\\u{1f1ee-1f1e8}",
  ":flag-id:": "\\u{1f1ee-1f1e9}",
  ":flag-ie:": "\\u{1f1ee-1f1ea}",
  ":flag-il:": "\\u{1f1ee-1f1f1}",
  ":flag-im:": "\\u{1f1ee-1f1f2}",
  ":flag-in:": "\\u{1f1ee-1f1f3}",
  ":flag-io:": "\\u{1f1ee-1f1f4}",
  ":flag-iq:": "\\u{1f1ee-1f1f6}",
  ":flag-ir:": "\\u{1f1ee-1f1f7}",
  ":flag-is:": "\\u{1f1ee-1f1f8}",
  ":flag-it:": "\\u{1f1ee-1f1f9}",
  ":flag-je:": "\\u{1f1ef-1f1ea}",
  ":flag-jm:": "\\u{1f1ef-1f1f2}",
  ":flag-jo:": "\\u{1f1ef-1f1f4}",
  ":flag-jp:": "\\u{1f1ef-1f1f5}",
  ":flag-ke:": "\\u{1f1f0-1f1ea}",
  ":flag-kg:": "\\u{1f1f0-1f1ec}",
  ":flag-kh:": "\\u{1f1f0-1f1ed}",
  ":flag-ki:": "\\u{1f1f0-1f1ee}",
  ":flag-km:": "\\u{1f1f0-1f1f2}",
  ":flag-kn:": "\\u{1f1f0-1f1f3}",
  ":flag-kp:": "\\u{1f1f0-1f1f5}",
  ":flag-kr:": "\\u{1f1f0-1f1f7}",
  ":flag-kw:": "\\u{1f1f0-1f1fc}",
  ":flag-ky:": "\\u{1f1f0-1f1fe}",
  ":flag-kz:": "\\u{1f1f0-1f1ff}",
  ":flag-la:": "\\u{1f1f1-1f1e6}",
  ":flag-lb:": "\\u{1f1f1-1f1e7}",
  ":flag-lc:": "\\u{1f1f1-1f1e8}",
  ":flag-li:": "\\u{1f1f1-1f1ee}",
  ":flag-lk:": "\\u{1f1f1-1f1f0}",
  ":flag-lr:": "\\u{1f1f1-1f1f7}",
  ":flag-ls:": "\\u{1f1f1-1f1f8}",
  ":flag-lt:": "\\u{1f1f1-1f1f9}",
  ":flag-lu:": "\\u{1f1f1-1f1fa}",
  ":flag-lv:": "\\u{1f1f1-1f1fb}",
  ":flag-ly:": "\\u{1f1f1-1f1fe}",
  ":flag-ma:": "\\u{1f1f2-1f1e6}",
  ":flag-mc:": "\\u{1f1f2-1f1e8}",
  ":flag-md:": "\\u{1f1f2-1f1e9}",
  ":flag-me:": "\\u{1f1f2-1f1ea}",
  ":flag-mf:": "\\u{1f1f2-1f1eb}",
  ":flag-mg:": "\\u{1f1f2-1f1ec}",
  ":flag-mh:": "\\u{1f1f2-1f1ed}",
  ":flag-mk:": "\\u{1f1f2-1f1f0}",
  ":flag-ml:": "\\u{1f1f2-1f1f1}",
  ":flag-mm:": "\\u{1f1f2-1f1f2}",
  ":flag-mn:": "\\u{1f1f2-1f1f3}",
  ":flag-mo:": "\\u{1f1f2-1f1f4}",
  ":flag-mp:": "\\u{1f1f2-1f1f5}",
  ":flag-mq:": "\\u{1f1f2-1f1f6}",
  ":flag-mr:": "\\u{1f1f2-1f1f7}",
  ":flag-ms:": "\\u{1f1f2-1f1f8}",
  ":flag-mt:": "\\u{1f1f2-1f1f9}",
  ":flag-mu:": "\\u{1f1f2-1f1fa}",
  ":flag-mv:": "\\u{1f1f2-1f1fb}",
  ":flag-mw:": "\\u{1f1f2-1f1fc}",
  ":flag-mx:": "\\u{1f1f2-1f1fd}",
  ":flag-my:": "\\u{1f1f2-1f1fe}",
  ":flag-mz:": "\\u{1f1f2-1f1ff}",
  ":flag-na:": "\\u{1f1f3-1f1e6}",
  ":flag-nc:": "\\u{1f1f3-1f1e8}",
  ":flag-ne:": "\\u{1f1f3-1f1ea}",
  ":flag-nf:": "\\u{1f1f3-1f1eb}",
  ":flag-ng:": "\\u{1f1f3-1f1ec}",
  ":flag-ni:": "\\u{1f1f3-1f1ee}",
  ":flag-nl:": "\\u{1f1f3-1f1f1}",
  ":flag-no:": "\\u{1f1f3-1f1f4}",
  ":flag-np:": "\\u{1f1f3-1f1f5}",
  ":flag-nr:": "\\u{1f1f3-1f1f7}",
  ":flag-nu:": "\\u{1f1f3-1f1fa}",
  ":flag-nz:": "\\u{1f1f3-1f1ff}",
  ":flag-om:": "\\u{1f1f4-1f1f2}",
  ":flag-pa:": "\\u{1f1f5-1f1e6}",
  ":flag-pe:": "\\u{1f1f5-1f1ea}",
  ":flag-pf:": "\\u{1f1f5-1f1eb}",
  ":flag-pg:": "\\u{1f1f5-1f1ec}",
  ":flag-ph:": "\\u{1f1f5-1f1ed}",
  ":flag-pk:": "\\u{1f1f5-1f1f0}",
  ":flag-pl:": "\\u{1f1f5-1f1f1}",
  ":flag-pm:": "\\u{1f1f5-1f1f2}",
  ":flag-pn:": "\\u{1f1f5-1f1f3}",
  ":flag-pr:": "\\u{1f1f5-1f1f7}",
  ":flag-ps:": "\\u{1f1f5-1f1f8}",
  ":flag-pt:": "\\u{1f1f5-1f1f9}",
  ":flag-pw:": "\\u{1f1f5-1f1fc}",
  ":flag-py:": "\\u{1f1f5-1f1fe}",
  ":flag-qa:": "\\u{1f1f6-1f1e6}",
  ":flag-re:": "\\u{1f1f7-1f1ea}",
  ":flag-ro:": "\\u{1f1f7-1f1f4}",
  ":flag-rs:": "\\u{1f1f7-1f1f8}",
  ":flag-ru:": "\\u{1f1f7-1f1fa}",
  ":flag-rw:": "\\u{1f1f7-1f1fc}",
  ":flag-sa:": "\\u{1f1f8-1f1e6}",
  ":flag-sb:": "\\u{1f1f8-1f1e7}",
  ":flag-sc:": "\\u{1f1f8-1f1e8}",
  ":flag-sd:": "\\u{1f1f8-1f1e9}",
  ":flag-se:": "\\u{1f1f8-1f1ea}",
  ":flag-sg:": "\\u{1f1f8-1f1ec}",
  ":flag-sh:": "\\u{1f1f8-1f1ed}",
  ":flag-si:": "\\u{1f1f8-1f1ee}",
  ":flag-sj:": "\\u{1f1f8-1f1ef}",
  ":flag-sk:": "\\u{1f1f8-1f1f0}",
  ":flag-sl:": "\\u{1f1f8-1f1f1}",
  ":flag-sm:": "\\u{1f1f8-1f1f2}",
  ":flag-sn:": "\\u{1f1f8-1f1f3}",
  ":flag-so:": "\\u{1f1f8-1f1f4}",
  ":flag-sr:": "\\u{1f1f8-1f1f7}",
  ":flag-ss:": "\\u{1f1f8-1f1f8}",
  ":flag-st:": "\\u{1f1f8-1f1f9}",
  ":flag-sv:": "\\u{1f1f8-1f1fb}",
  ":flag-sx:": "\\u{1f1f8-1f1fd}",
  ":flag-sy:": "\\u{1f1f8-1f1fe}",
  ":flag-sz:": "\\u{1f1f8-1f1ff}",
  ":flag-ta:": "\\u{1f1f9-1f1e6}",
  ":flag-tc:": "\\u{1f1f9-1f1e8}",
  ":flag-td:": "\\u{1f1f9-1f1e9}",
  ":flag-tf:": "\\u{1f1f9-1f1eb}",
  ":flag-tg:": "\\u{1f1f9-1f1ec}",
  ":flag-th:": "\\u{1f1f9-1f1ed}",
  ":flag-tj:": "\\u{1f1f9-1f1ef}",
  ":flag-tk:": "\\u{1f1f9-1f1f0}",
  ":flag-tl:": "\\u{1f1f9-1f1f1}",
  ":flag-tm:": "\\u{1f1f9-1f1f2}",
  ":flag-tn:": "\\u{1f1f9-1f1f3}",
  ":flag-to:": "\\u{1f1f9-1f1f4}",
  ":flag-tr:": "\\u{1f1f9-1f1f7}",
  ":flag-tt:": "\\u{1f1f9-1f1f9}",
  ":flag-tv:": "\\u{1f1f9-1f1fb}",
  ":flag-tw:": "\\u{1f1f9-1f1fc}",
  ":flag-tz:": "\\u{1f1f9-1f1ff}",
  ":flag-ua:": "\\u{1f1fa-1f1e6}",
  ":flag-ug:": "\\u{1f1fa-1f1ec}",
  ":flag-um:": "\\u{1f1fa-1f1f2}",
  ":flag-us:": "\\u{1f1fa-1f1f8}",
  ":flag-uy:": "\\u{1f1fa-1f1fe}",
  ":flag-uz:": "\\u{1f1fa-1f1ff}",
  ":flag-va:": "\\u{1f1fb-1f1e6}",
  ":flag-vc:": "\\u{1f1fb-1f1e8}",
  ":flag-ve:": "\\u{1f1fb-1f1ea}",
  ":flag-vg:": "\\u{1f1fb-1f1ec}",
  ":flag-vi:": "\\u{1f1fb-1f1ee}",
  ":flag-vn:": "\\u{1f1fb-1f1f3}",
  ":flag_vu:": "\\u{1f1fb-1f1fa}",
  ":flag_wf:": "\\u{1f1fc-1f1eb}",
  ":flag_ws:": "\\u{1f1fc-1f1f8}",
  ":flag_xk:": "\\u{1f1fd-1f1f0}",
  ":flag_ye:": "\\u{1f1fe-1f1ea}",
  ":flag_yt:": "\\u{1f1fe-1f1f9}",
  ":flag_za:": "\\u{1f1ff-1f1e6}",
  ":flag_zm:": "\\u{1f1ff-1f1f2}",
  ":flag_zw:": "\\u{1f1ff-1f1fc}",
  ":black_heart:": "\\u{1f5a4}",
  ":speech_left:": "\\u{1f5e8}",
  ":egg:": "\\u{1f95a}",
  ":octagonal_sign:": "\\u{1f6d1}",
  ":spades:": "\\u{2660}",
  ":hearts:": "\\u{2665}",
  ":diamonds:": "\\u{2666}",
  ":clubs:": "\\u{2663}",
  ":drum:": "\\u{1f941}",
  ":left_right_arrow:": "\\u{2194}",
  ":tm:": "\\u{2122}",
  ":0:": "\\u{0030}\\u{FE0F}\\u{20E3}",
  ":1:": "\\u{0031}\\u{FE0F}\\u{20E3}",
  ":2:": "\\u{0032}\\u{FE0F}\\u{20E3}",
  ":3:": "\\u{0033}\\u{FE0F}\\u{20E3}",
  ":4:": "\\u{0034}\\u{FE0F}\\u{20E3}",
  ":5:": "\\u{0035}\\u{FE0F}\\u{20E3}",
  ":6:": "\\u{0036}\\u{FE0F}\\u{20E3}",
  ":7:": "\\u{0037}\\u{FE0F}\\u{20E3}",
  ":8:": "\\u{0038}\\u{FE0F}\\u{20E3}",
  ":9:": "\\u{0039}\\u{FE0F}\\u{20E3}",
  ":hash:": "\\u{0023-20e3}",
  ":asterisk:": "\\u{002a-20e3}",
  ":zero:": "\\u{0030-20e3}",
  ":one:": "\\u{0031-20e3}",
  ":two:": "\\u{0032-20e3}",
  ":three:": "\\u{0033-20e3}",
  ":four:": "\\u{0034-20e3}",
  ":five:": "\\u{0035-20e3}",
  ":six:": "\\u{0036-20e3}",
  ":seven:": "\\u{0037-20e3}",
  ":eight:": "\\u{0038-20e3}",
  ":nine:": "\\u{0039-20e3}",
  ":rolling_on_the_floor_laughing:": "\\u{1F923}",
  ":smiling_face_with_hearts:": "\\u{1F970}",
  ":starstruck:": "\\u{1F929}",
  ":smiling_face:": "\\u{263A}",
  ":zany_face:": "\\u{1F92A}",
  ":face_with_hand_over_mouth:": "\\u{1F92D}",
  ":shushing_face:": "\\u{1F92B}",
  ":face_with_raised_eyebrow:": "\\u{1F928}",
  ":lying_face:": "\\u{1F925}",
  ":drooling_face:": "\\u{1F924}",
  ":nauseated_face:": "\\u{1F922}",
  ":face_vomiting:": "\\u{1F92E}",
  ":sneezing_face:": "\\u{1F927}",
  ":hot_face:": "\\u{1F975}",
  ":cold_face:": "\\u{1F976}",
  ":woozy_face:": "\\u{1F974}",
  ":exploding_head:": "\\u{1F92F}",
  ":cowboy_hat_face:": "\\u{1F920}",
  ":partying_face:": "\\u{1F973}",
  ":face_with_monocle:": "\\u{1F9D0}",
  ":pleading_face:": "\\u{1F97A}",
  ":yawning_face:": "\\u{1F971}",
  ":face_with_symbols_on_mouth:": "\\u{1F92C}",
  ":skull_and_crossbones:": "\\u{2620}\\u{FE0F}",
  ":clown_face:": "\\u{1F921}",
  ":red_heart:": "\\u{2764}",
  ":orange_heart:": "\\u{1F9E1}",
  ":brown_heart:": "\\u{1F90E}",
  ":white_heart:": "\\u{1F90D}",
  ":eye_in_speech_bubble:": "\\u{1F441}\\u{FE0F}\\u{200D}\\u{1F5E8}",
  ":left_speech_bubble:": "\\u{1F5E8}\\u{FE0F}",
  ":right_anger_bubble:": "\\u{1F5EF}\\u{FE0F}",
  ":raised_back_of_hand:": "\\u{1F91A}",
  ":pinching_hand:": "\\u{1F90F}",
  ":victory_hand:": "\\u{270C}",
  ":crossed_fingers:": "\\u{1F91E}",
  ":loveyou_gesture:": "\\u{1F91F}",
  ":call_me_hand:": "\\u{1F919}",
  ":index_pointing_up:": "\\u{261D}",
  ":leftfacing_fist:": "\\u{1F91B}",
  ":rightfacing_fist:": "\\u{1F91C}",
  ":palms_up_together:": "\\u{1F932}",
  ":handshake:": "\\u{1F91D}",
  ":selfie:": "\\u{1F933}",
  ":mechanical_arm:": "\\u{1F9BE}",
  ":mechanical_leg:": "\\u{1F9BF}",
  ":leg:": "\\u{1F9B5}",
  ":foot:": "\\u{1F9B6}",
  ":ear_with_hearing_aid:": "\\u{1F9BB}",
  ":brain:": "\\u{1F9E0}",
  ":tooth:": "\\u{1F9B7}",
  ":bone:": "\\u{1F9B4}",
  ":child:": "\\u{1F9D2}",
  ":person:": "\\u{1F9D1}",
  ":beard:": "\\u{1F9D4}",
  ":red_hair:": "\\u{1F9B0}",
  ":curly_hair:": "\\u{1F9B1}",
  ":white_hair:": "\\u{1F9B3}",
  ":bald:": "\\u{1F9B2}",
  ":older_person:": "\\u{1F9D3}",
  ":woman_frowning:": "\\u{1F64D}\\u{200D}\\u{2640}",
  ":woman_pouting:": "\\u{1F64E}\\u{200D}\\u{2640}",
  ":woman_gesturing_NO:": "\\u{1F645}\\u{200D}\\u{2640}",
  ":woman_gesturing_OK:": "\\u{1F646}\\u{200D}\\u{2640}",
  ":woman_tipping_hand:": "\\u{1F481}\\u{200D}\\u{2640}",
  ":woman_raising_hand:": "\\u{1F64B}\\u{200D}\\u{2640}",
  ":deaf_person:": "\\u{1F9CF}",
  ":deaf_man:": "\\u{1F9CF}\\u{200D}\\u{2642}",
  ":deaf_woman:": "\\u{1F9CF}\\u{200D}\\u{2640}",
  ":man_bowing:": "\\u{1F647}\\u{200D}\\u{2642}",
  ":person_facepalming:": "\\u{1F926}",
  ":man_facepalming:": "\\u{1F926}\\u{200D}\\u{2642}",
  ":woman_facepalming:": "\\u{1F926}\\u{200D}\\u{2640}",
  ":person_shrugging:": "\\u{1F937}",
  ":man_shrugging:": "\\u{1F937}\\u{200D}\\u{2642}",
  ":woman_shrugging:": "\\u{1F937}\\u{200D}\\u{2640}",
  ":health_worker:": "\\u{1F9D1}\\u{200D}\\u{2695}",
  ":man_health_worker:": "\\u{1F468}\\u{200D}\\u{2695}",
  ":woman_health_worker:": "\\u{1F469}\\u{200D}\\u{2695}",
  ":student:": "\\u{1F9D1}\\u{200D}\\u{1F393}",
  ":man_student:": "\\u{1F468}\\u{200D}\\u{1F393}",
  ":woman_student:": "\\u{1F469}\\u{200D}\\u{1F393}",
  ":teacher:": "\\u{1F9D1}\\u{200D}\\u{1F3EB}",
  ":man_teacher:": "\\u{1F468}\\u{200D}\\u{1F3EB}",
  ":woman_teacher:": "\\u{1F469}\\u{200D}\\u{1F3EB}",
  ":judge:": "\\u{1F9D1}\\u{200D}\\u{2696}",
  ":man_judge:": "\\u{1F468}\\u{200D}\\u{2696}",
  ":woman_judge:": "\\u{1F469}\\u{200D}\\u{2696}",
  ":farmer:": "\\u{1F9D1}\\u{200D}\\u{1F33E}",
  ":man_farmer:": "\\u{1F468}\\u{200D}\\u{1F33E}",
  ":woman_farmer:": "\\u{1F469}\\u{200D}\\u{1F33E}",
  ":cook:": "\\u{1F9D1}\\u{200D}\\u{1F373}",
  ":man_cook:": "\\u{1F468}\\u{200D}\\u{1F373}",
  ":woman_cook:": "\\u{1F469}\\u{200D}\\u{1F373}",
  ":mechanic:": "\\u{1F9D1}\\u{200D}\\u{1F527}",
  ":man_mechanic:": "\\u{1F468}\\u{200D}\\u{1F527}",
  ":woman_mechanic:": "\\u{1F469}\\u{200D}\\u{1F527}",
  ":factory_worker:": "\\u{1F9D1}\\u{200D}\\u{1F3ED}",
  ":man_factory_worker:": "\\u{1F468}\\u{200D}\\u{1F3ED}",
  ":woman_factory_worker:": "\\u{1F469}\\u{200D}\\u{1F3ED}",
  ":office_worker:": "\\u{1F9D1}\\u{200D}\\u{1F4BC}",
  ":man_office_worker:": "\\u{1F468}\\u{200D}\\u{1F4BC}",
  ":woman_office_worker:": "\\u{1F469}\\u{200D}\\u{1F4BC}",
  ":scientist:": "\\u{1F9D1}\\u{200D}\\u{1F52C}",
  ":man_scientist:": "\\u{1F468}\\u{200D}\\u{1F52C}",
  ":woman_scientist:": "\\u{1F469}\\u{200D}\\u{1F52C}",
  ":technologist:": "\\u{1F9D1}\\u{200D}\\u{1F4BB}",
  ":man_technologist:": "\\u{1F468}\\u{200D}\\u{1F4BB}",
  ":woman_technologist:": "\\u{1F469}\\u{200D}\\u{1F4BB}",
  ":singer:": "\\u{1F9D1}\\u{200D}\\u{1F3A4}",
  ":man_singer:": "\\u{1F468}\\u{200D}\\u{1F3A4}",
  ":woman_singer:": "\\u{1F469}\\u{200D}\\u{1F3A4}",
  ":artist:": "\\u{1F9D1}\\u{200D}\\u{1F3A8}",
  ":man_artist:": "\\u{1F468}\\u{200D}\\u{1F3A8}",
  ":woman_artist:": "\\u{1F469}\\u{200D}\\u{1F3A8}",
  ":pilot:": "\\u{1F9D1}\\u{200D}\\u{2708}",
  ":man_pilot:": "\\u{1F468}\\u{200D}\\u{2708}",
  ":woman_pilot:": "\\u{1F469}\\u{200D}\\u{2708}",
  ":astronaut:": "\\u{1F9D1}\\u{200D}\\u{1F680}",
  ":man_astronaut:": "\\u{1F468}\\u{200D}\\u{1F680}",
  ":woman_astronaut:": "\\u{1F469}\\u{200D}\\u{1F680}",
  ":firefighter:": "\\u{1F9D1}\\u{200D}\\u{1F692}",
  ":man_firefighter:": "\\u{1F468}\\u{200D}\\u{1F692}",
  ":woman_firefighter:": "\\u{1F469}\\u{200D}\\u{1F692}",
  ":man_police_officer:": "\\u{1F46E}\\u{200D}\\u{2642}",
  ":man_detective:": "\\u{1F575}\\u{200D}\\u{2642}",
  ":man_guard:": "\\u{1F482}\\u{200D}\\u{2642}",
  ":man_construction_worker:": "\\u{1F477}\\u{200D}\\u{2642}",
  ":prince:": "\\u{1F934}",
  ":man_wearing_turban:": "\\u{1F473}\\u{200D}\\u{2642}",
  ":woman_with_headscarf:": "\\u{1F9D5}",
  ":man_in_tuxedo:": "\\u{1F935}",
  ":pregnant_woman:": "\\u{1F930}",
  ":breastfeeding:": "\\u{1F931}",
  ":Mrs_Claus:": "\\u{1F936}",
  ":superhero:": "\\u{1F9B8}",
  ":man_superhero:": "\\u{1F9B8}\\u{200D}\\u{2642}",
  ":woman_superhero:": "\\u{1F9B8}\\u{200D}\\u{2640}",
  ":supervillain:": "\\u{1F9B9}",
  ":man_supervillain:": "\\u{1F9B9}\\u{200D}\\u{2642}",
  ":woman_supervillain:": "\\u{1F9B9}\\u{200D}\\u{2640}",
  ":mage:": "\\u{1F9D9}",
  ":man_mage:": "\\u{1F9D9}\\u{200D}\\u{2642}",
  ":woman_mage:": "\\u{1F9D9}\\u{200D}\\u{2640}",
  ":fairy:": "\\u{1F9DA}",
  ":man_fairy:": "\\u{1F9DA}\\u{200D}\\u{2642}",
  ":woman_fairy:": "\\u{1F9DA}\\u{200D}\\u{2640}",
  ":vampire:": "\\u{1F9DB}",
  ":man_vampire:": "\\u{1F9DB}\\u{200D}\\u{2642}",
  ":woman_vampire:": "\\u{1F9DB}\\u{200D}\\u{2640}",
  ":merperson:": "\\u{1F9DC}",
  ":merman:": "\\u{1F9DC}\\u{200D}\\u{2642}",
  ":mermaid:": "\\u{1F9DC}\\u{200D}\\u{2640}",
  ":elf:": "\\u{1F9DD}",
  ":man_elf:": "\\u{1F9DD}\\u{200D}\\u{2642}",
  ":woman_elf:": "\\u{1F9DD}\\u{200D}\\u{2640}",
  ":genie:": "\\u{1F9DE}",
  ":man_genie:": "\\u{1F9DE}\\u{200D}\\u{2642}",
  ":woman_genie:": "\\u{1F9DE}\\u{200D}\\u{2640}",
  ":zombie:": "\\u{1F9DF}",
  ":man_zombie:": "\\u{1F9DF}\\u{200D}\\u{2642}",
  ":woman_zombie:": "\\u{1F9DF}\\u{200D}\\u{2640}",
  ":woman_getting_massage:": "\\u{1F486}\\u{200D}\\u{2640}",
  ":woman_getting_haircut:": "\\u{1F487}\\u{200D}\\u{2640}",
  ":man_walking:": "\\u{1F6B6}\\u{200D}\\u{2642}",
  ":person_standing:": "\\u{1F9CD}",
  ":man_standing:": "\\u{1F9CD}\\u{200D}\\u{2642}",
  ":woman_standing:": "\\u{1F9CD}\\u{200D}\\u{2640}",
  ":person_kneeling:": "\\u{1F9CE}",
  ":man_kneeling:": "\\u{1F9CE}\\u{200D}\\u{2642}",
  ":woman_kneeling:": "\\u{1F9CE}\\u{200D}\\u{2640}",
  ":person_with_probing_cane:": "\\u{1F9D1}\\u{200D}\\u{1F9AF}",
  ":man_with_probing_cane:": "\\u{1F468}\\u{200D}\\u{1F9AF}",
  ":woman_with_probing_cane:": "\\u{1F469}\\u{200D}\\u{1F9AF}",
  ":person_in_motorized_wheelchair:": "\\u{1F9D1}\\u{200D}\\u{1F9BC}",
  ":man_in_motorized_wheelchair:": "\\u{1F468}\\u{200D}\\u{1F9BC}",
  ":woman_in_motorized_wheelchair:": "\\u{1F469}\\u{200D}\\u{1F9BC}",
  ":person_in_manual_wheelchair:": "\\u{1F9D1}\\u{200D}\\u{1F9BD}",
  ":man_in_manual_wheelchair:": "\\u{1F468}\\u{200D}\\u{1F9BD}",
  ":woman_in_manual_wheelchair:": "\\u{1F469}\\u{200D}\\u{1F9BD}",
  ":man_running:": "\\u{1F3C3}\\u{200D}\\u{2642}",
  ":man_dancing:": "\\u{1F57A}",
  ":man_in_suit_levitating:": "\\u{1F574}\\u{FE0F}",
  ":women_with_bunny_ears:": "\\u{1F46F}\\u{200D}\\u{2640}",
  ":person_in_steamy_room:": "\\u{1F9D6}",
  ":man_in_steamy_room:": "\\u{1F9D6}\\u{200D}\\u{2642}",
  ":woman_in_steamy_room:": "\\u{1F9D6}\\u{200D}\\u{2640}",
  ":person_climbing:": "\\u{1F9D7}",
  ":man_climbing:": "\\u{1F9D7}\\u{200D}\\u{2642}",
  ":woman_climbing:": "\\u{1F9D7}\\u{200D}\\u{2640}",
  ":person_fencing:": "\\u{1F93A}",
  ":person_golfing:": "\\u{1F3CC}\\u{FE0F}",
  ":man_golfing:": "\\u{1F3CC}\\u{200D}\\u{2642}",
  ":woman_golfing:": "\\u{1F3CC}\\u{FE0F}\\u{200D}\\u{2640}",
  ":man_surfing:": "\\u{1F3C4}\\u{200D}\\u{2642}",
  ":man_rowing_boat:": "\\u{1F6A3}\\u{200D}\\u{2642}",
  ":man_swimming:": "\\u{1F3CA}\\u{200D}\\u{2642}",
  ":person_bouncing_ball:": "\\u{26F9}\\u{FE0F}",
  ":man_bouncing_ball:": "\\u{26F9}\\u{200D}\\u{2642}",
  ":person_lifting_weights:": "\\u{1F3CB}\\u{FE0F}",
  ":man_lifting_weights:": "\\u{1F3CB}\\u{200D}\\u{2642}",
  ":woman_lifting_weights:": "\\u{1F3CB}\\u{FE0F}\\u{200D}\\u{2640}",
  ":man_biking:": "\\u{1F6B4}\\u{200D}\\u{2642}",
  ":man_mountain_biking:": "\\u{1F6B5}\\u{200D}\\u{2642}",
  ":person_cartwheeling:": "\\u{1F938}",
  ":man_cartwheeling:": "\\u{1F938}\\u{200D}\\u{2642}",
  ":woman_cartwheeling:": "\\u{1F938}\\u{200D}\\u{2640}",
  ":people_wrestling:": "\\u{1F93C}",
  ":men_wrestling:": "\\u{1F93C}\\u{200D}\\u{2642}",
  ":women_wrestling:": "\\u{1F93C}\\u{200D}\\u{2640}",
  ":person_playing_water_polo:": "\\u{1F93D}",
  ":man_playing_water_polo:": "\\u{1F93D}\\u{200D}\\u{2642}",
  ":woman_playing_water_polo:": "\\u{1F93D}\\u{200D}\\u{2640}",
  ":person_playing_handball:": "\\u{1F93E}",
  ":man_playing_handball:": "\\u{1F93E}\\u{200D}\\u{2642}",
  ":woman_playing_handball:": "\\u{1F93E}\\u{200D}\\u{2640}",
  ":person_juggling:": "\\u{1F939}",
  ":man_juggling:": "\\u{1F939}\\u{200D}\\u{2642}",
  ":woman_juggling:": "\\u{1F939}\\u{200D}\\u{2640}",
  ":person_in_lotus_position:": "\\u{1F9D8}",
  ":man_in_lotus_position:": "\\u{1F9D8}\\u{200D}\\u{2642}",
  ":woman_in_lotus_position:": "\\u{1F9D8}\\u{200D}\\u{2640}",
  ":people_holding_hands:": "\\u{1F9D1}\\u{200D}\\u{1F91D}\\u{200D}\\u{1F9D1}",
  ":woman_man:": "\\u{1F469}\\u{200D}\\u{2764}\\u{200D}\\u{1F468}",
  ":man_man:": "\\u{1F468}\\u{200D}\\u{2764}\\u{200D}\\u{1F468}",
  ":man_woman_boy:": "\\u{1F468}\\u{200D}\\u{1F469}\\u{200D}\\u{1F466}",
  ":gorilla:": "\\u{1F98D}",
  ":orangutan:": "\\u{1F9A7}",
  ":guide_dog:": "\\u{1F9AE}",
  ":service_dog:": "\\u{1F415}\\u{200D}\\u{1F9BA}",
  ":fox:": "\\u{1F98A}",
  ":raccoon:": "\\u{1F99D}",
  ":zebra:": "\\u{1F993}",
  ":deer:": "\\u{1F98C}",
  ":llama:": "\\u{1F999}",
  ":giraffe:": "\\u{1F992}",
  ":rhinoceros:": "\\u{1F98F}",
  ":hippopotamus:": "\\u{1F99B}",
  ":hedgehog:": "\\u{1F994}",
  ":bat:": "\\u{1F987}",
  ":sloth:": "\\u{1F9A5}",
  ":otter:": "\\u{1F9A6}",
  ":skunk:": "\\u{1F9A8}",
  ":kangaroo:": "\\u{1F998}",
  ":badger:": "\\u{1F9A1}",
  ":eagle:": "\\u{1F985}",
  ":duck:": "\\u{1F986}",
  ":swan:": "\\u{1F9A2}",
  ":owl:": "\\u{1F989}",
  ":flamingo:": "\\u{1F9A9}",
  ":peacock:": "\\u{1F99A}",
  ":parrot:": "\\u{1F99C}",
  ":lizard:": "\\u{1F98E}",
  ":sauropod:": "\\u{1F995}",
  ":TRex:": "\\u{1F996}",
  ":shark:": "\\u{1F988}",
  ":butterfly:": "\\u{1F98B}",
  ":cricket:": "\\u{1F997}",
  ":mosquito:": "\\u{1F99F}",
  ":microbe:": "\\u{1F9A0}",
  ":wilted_flower:": "\\u{1F940}",
  ":mango:": "\\u{1F96D}",
  ":kiwi_fruit:": "\\u{1F95D}",
  ":coconut:": "\\u{1F965}",
  ":avocado:": "\\u{1F951}",
  ":potato:": "\\u{1F954}",
  ":carrot:": "\\u{1F955}",
  ":cucumber:": "\\u{1F952}",
  ":leafy_green:": "\\u{1F96C}",
  ":broccoli:": "\\u{1F966}",
  ":garlic:": "\\u{1F9C4}",
  ":onion:": "\\u{1F9C5}",
  ":peanuts:": "\\u{1F95C}",
  ":croissant:": "\\u{1F950}",
  ":baguette_bread:": "\\u{1F956}",
  ":pretzel:": "\\u{1F968}",
  ":bagel:": "\\u{1F96F}",
  ":pancakes:": "\\u{1F95E}",
  ":waffle:": "\\u{1F9C7}",
  ":cut_of_meat:": "\\u{1F969}",
  ":bacon:": "\\u{1F953}",
  ":sandwich:": "\\u{1F96A}",
  ":stuffed_flatbread:": "\\u{1F959}",
  ":falafel:": "\\u{1F9C6}",
  ":shallow_pan_of_food:": "\\u{1F958}",
  ":bowl_with_spoon:": "\\u{1F963}",
  ":green_salad:": "\\u{1F957}",
  ":butter:": "\\u{1F9C8}",
  ":salt:": "\\u{1F9C2}",
  ":canned_food:": "\\u{1F96B}",
  ":moon_cake:": "\\u{1F96E}",
  ":dumpling:": "\\u{1F95F}",
  ":fortune_cookie:": "\\u{1F960}",
  ":takeout_box:": "\\u{1F961}",
  ":lobster:": "\\u{1F99E}",
  ":shrimp:": "\\u{1F990}",
  ":squid:": "\\u{1F991}",
  ":oyster:": "\\u{1F9AA}",
  ":cupcake:": "\\u{1F9C1}",
  ":pie:": "\\u{1F967}",
  ":glass_of_milk:": "\\u{1F95B}",
  ":clinking_glasses:": "\\u{1F942}",
  ":tumbler_glass:": "\\u{1F943}",
  ":cup_with_straw:": "\\u{1F964}",
  ":beverage_box:": "\\u{1F9C3}",
  ":mate:": "\\u{1F9C9}",
  ":ice:": "\\u{1F9CA}",
  ":chopsticks:": "\\u{1F962}",
  ":spoon:": "\\u{1F944}",
  ":compass:": "\\u{1F9ED}",
  ":brick:": "\\u{1F9F1}",
  ":hindu_temple:": "\\u{1F6D5}",
  ":hot_springs:": "\\u{2668}",
  ":motor_scooter:": "\\u{1F6F5}",
  ":manual_wheelchair:": "\\u{1F9BD}",
  ":motorized_wheelchair:": "\\u{1F9BC}",
  ":auto_rickshaw:": "\\u{1F6FA}",
  ":kick_scooter:": "\\u{1F6F4}",
  ":skateboard:": "\\u{1F6F9}",
  ":canoe:": "\\u{1F6F6}",
  ":parachute:": "\\u{1FA82}",
  ":flying_saucer:": "\\u{1F6F8}",
  ":luggage:": "\\u{1F9F3}",
  ":sun:": "\\u{2600}",
  ":ringed_planet:": "\\u{1FA90}",
  ":wind_face:": "\\u{1F32C}\\u{FE0F}",
  ":umbrella_on_ground:": "\\u{26F1}\\u{FE0F}",
  ":firecracker:": "\\u{1F9E8}",
  ":red_envelope:": "\\u{1F9E7}",
  ":1st_place_medal:": "\\u{1F947}",
  ":2nd_place_medal:": "\\u{1F948}",
  ":3rd_place_medal:": "\\u{1F949}",
  ":softball:": "\\u{1F94E}",
  ":flying_disc:": "\\u{1F94F}",
  ":lacrosse:": "\\u{1F94D}",
  ":boxing_glove:": "\\u{1F94A}",
  ":martial_arts_uniform:": "\\u{1F94B}",
  ":goal_net:": "\\u{1F945}",
  ":diving_mask:": "\\u{1F93F}",
  ":sled:": "\\u{1F6F7}",
  ":curling_stone:": "\\u{1F94C}",
  ":yoyo:": "\\u{1FA80}",
  ":kite:": "\\u{1FA81}",
  ":nazar_amulet:": "\\u{1F9FF}",
  ":puzzle_piece:": "\\u{1F9E9}",
  ":teddy_bear:": "\\u{1F9F8}",
  ":chess_pawn:": "\\u{265F}",
  ":thread:": "\\u{1F9F5}",
  ":yarn:": "\\u{1F9F6}",
  ":goggles:": "\\u{1F97D}",
  ":lab_coat:": "\\u{1F97C}",
  ":safety_vest:": "\\u{1F9BA}",
  ":scarf:": "\\u{1F9E3}",
  ":gloves:": "\\u{1F9E4}",
  ":coat:": "\\u{1F9E5}",
  ":socks:": "\\u{1F9E6}",
  ":sari:": "\\u{1F97B}",
  ":onepiece_swimsuit:": "\\u{1FA71}",
  ":briefs:": "\\u{1FA72}",
  ":shorts:": "\\u{1FA73}",
  ":hiking_boot:": "\\u{1F97E}",
  ":flat_shoe:": "\\u{1F97F}",
  ":ballet_shoes:": "\\u{1FA70}",
  ":billed_cap:": "\\u{1F9E2}",
  ":banjo:": "\\u{1FA95}",
  ":abacus:": "\\u{1F9EE}",
  ":diya_lamp:": "\\u{1FA94}",
  ":receipt:": "\\u{1F9FE}",
  ":ballot_box_with_ballot:": "\\u{1F5F3}\\u{FE0F}",
  ":pencil:": "\\u{270F}\\u{FE0F}",
  ":axe:": "\\u{1FA93}",
  ":clamp:": "\\u{1F5DC}\\u{FE0F}",
  ":balance_scale:": "\\u{2696}\\u{FE0F}",
  ":probing_cane:": "\\u{1F9AF}",
  ":toolbox:": "\\u{1F9F0}",
  ":magnet:": "\\u{1F9F2}",
  ":test_tube:": "\\u{1F9EA}",
  ":petri_dish:": "\\u{1F9EB}",
  ":dna:": "\\u{1F9EC}",
  ":drop_of_blood:": "\\u{1FA78}",
  ":adhesive_bandage:": "\\u{1FA79}",
  ":stethoscope:": "\\u{1FA7A}",
  ":chair:": "\\u{1FA91}",
  ":razor:": "\\u{1FA92}",
  ":lotion_bottle:": "\\u{1F9F4}",
  ":safety_pin:": "\\u{1F9F7}",
  ":broom:": "\\u{1F9F9}",
  ":basket:": "\\u{1F9FA}",
  ":roll_of_paper:": "\\u{1F9FB}",
  ":soap:": "\\u{1F9FC}",
  ":sponge:": "\\u{1F9FD}",
  ":fire_extinguisher:": "\\u{1F9EF}",
  ":shopping_cart:": "\\u{1F6D2}",
  ":up_arrow:": "\\u{2B06}",
  ":upright_arrow:": "\\u{2197}",
  ":right_arrow:": "\\u{27A1}\\u{FE0F}",
  ":downright_arrow:": "\\u{2198}",
  ":down_arrow:": "\\u{2B07}",
  ":downleft_arrow:": "\\u{2199}",
  ":left_arrow:": "\\u{2B05}",
  ":upleft_arrow:": "\\u{2196}\\u{FE0F}",
  ":updown_arrow:": "\\u{2195}\\u{FE0F}",
  ":right_arrow_curving_left:": "\\u{21A9}",
  ":left_arrow_curving_right:": "\\u{21AA}",
  ":right_arrow_curving_up:": "\\u{2934}",
  ":right_arrow_curving_down:": "\\u{2935}",
  ":atom_symbol:": "\\u{269B}\\u{FE0F}",
  ":om:": "\\u{1F549}\\u{FE0F}",
  ":star_of_David:": "\\u{2721}",
  ":latin_cross:": "\\u{271D}",
  ":peace_symbol:": "\\u{262E}\\u{FE0F}",
  ":play_button:": "\\u{25B6}",
  ":next_track_button:": "\\u{23ED}\\u{FE0F}",
  ":play_or_pause_button:": "\\u{23EF}\\u{FE0F}",
  ":reverse_button:": "\\u{25C0}",
  ":last_track_button:": "\\u{23EE}\\u{FE0F}",
  ":eject_button:": "\\u{23CF}",
  ":female_sign:": "\\u{2640}",
  ":male_sign:": "\\u{2642}",
  ":medical_symbol:": "\\u{2695}",
  ":infinity:": "\\u{267E}",
  ":recycling_symbol:": "\\u{267B}\\u{FE0F}",
  ":fleurde-lis:": "\\u{269C}\\u{FE0F}",
  ":check_box_with_check:": "\\u{2611}",
  ":check_mark:": "\\u{2714}",
  ":multiplication_sign:": "\\u{2716}",
  ":eightspoked_asterisk:": "\\u{2733}",
  ":eightpointed_star:": "\\u{2734}",
  ":double_exclamation_mark:": "\\u{203C}",
  ":exclamation_question_mark:": "\\u{2049}",
  ":#:": "\\u{0023}\\u{FE0F}\\u{20E3}",
  ":A_button_blood_type:": "\\u{1F170}",
  ":B_button_blood_type:": "\\u{1F171}",
  ":information:": "\\u{2139}\\u{FE0F}",
  ":circled_M:": "\\u{24C2}",
  ":O_button_blood_type:": "\\u{1F17E}",
  ":P_button:": "\\u{1F17F}",
  ":Japanese_service_charge_button:": "\\u{1F202}",
  ":Japanese_monthly_amount_button:": "\\u{1F237}\\u{FE0F}",
  ":Japanese_reserved_button:": "\\u{1F22F}",
  ":Japanese_free_of_charge_button:": "\\u{1F21A}",
  ":Japanese_congratulations_button:": "\\u{3297}\\u{FE0F}",
  ":Japanese_secret_button:": "\\u{3299}\\u{FE0F}",
  ":orange_circle:": "\\u{1F7E0}",
  ":yellow_circle:": "\\u{1F7E1}",
  ":green_circle:": "\\u{1F7E2}",
  ":purple_circle:": "\\u{1F7E3}",
  ":brown_circle:": "\\u{1F7E4}",
  ":red_square:": "\\u{1F7E5}",
  ":orange_square:": "\\u{1F7E7}",
  ":yellow_square:": "\\u{1F7E8}",
  ":green_square:": "\\u{1F7E9}",
  ":blue_square:": "\\u{1F7E6}",
  ":white_flag:": "\\u{1F3F3}\\u{FE0F}",
  ":pirate_flag:": "\\u{1F3F4}\\u{200D}\\u{2620}",
  ":United_Nations:": "\\u{1F1FA}\\u{1F1F3}",
  ":England:": "\\u{1F3F4}\\u{E0067}\\u{E0062}\\u{E0065}\\u{E006E}\\u{E0067}\\u{E007F}",
  ":Scotland:": "\\u{1F3F4}\\u{E0067}\\u{E0062}\\u{E0073}\\u{E0063}\\u{E0074}\\u{E007F}",
  ":wales:": "\\u{1F3F4}\\u{E0067}\\u{E0062}\\u{E0077}\\u{E006C}\\u{E0073}\\u{E007F}"
}
